CPU.vcd
$date
	Sun Dec 12 15:46:54 2021
$end
$version
	Icarus Verilog
$end
$timescale
	1s
$end
$scope module TestBench $end
$var reg 1 ! Clk $end
$var reg 1 " Reset $end
$var reg 1 # Start $end
$var integer 32 $ counter [31:0] $end
$var integer 32 % flush [31:0] $end
$var integer 32 & i [31:0] $end
$var integer 32 ' outfile [31:0] $end
$var integer 32 ( stall [31:0] $end
$scope module CPU $end
$var wire 1 ) Flush $end
$var wire 32 * SE_21 [31:0] $end
$var wire 1 ! clk_i $end
$var wire 1 " rst_i $end
$var wire 1 # start_i $end
$var wire 32 + tmpB [31:0] $end
$var wire 32 , tmpA [31:0] $end
$var wire 32 - pc_predicted [31:0] $end
$var wire 32 . pc_branch [31:0] $end
$var wire 32 / pc_2 [31:0] $end
$var wire 32 0 pc_1 [31:0] $end
$var wire 32 1 pc_0 [31:0] $end
$var wire 32 2 instr_2 [31:0] $end
$var wire 32 3 instr_1 [31:0] $end
$var wire 10 4 funct_3 [9:0] $end
$var wire 10 5 funct_2 [9:0] $end
$var wire 1 6 Stall $end
$var wire 32 7 SE_3 [31:0] $end
$var wire 32 8 SE_23 [31:0] $end
$var wire 32 9 SE_22 [31:0] $end
$var wire 1 : RegWrite_tmp $end
$var wire 1 ; RegWrite_5 $end
$var wire 1 < RegWrite_4 $end
$var wire 1 = RegWrite_3 $end
$var wire 1 > RegWrite_2 $end
$var wire 32 ? RS2data_4 [31:0] $end
$var wire 32 @ RS2data_32 [31:0] $end
$var wire 32 A RS2data_31 [31:0] $end
$var wire 32 B RS2data_2 [31:0] $end
$var wire 5 C RS2addr_3 [4:0] $end
$var wire 5 D RS2addr_2 [4:0] $end
$var wire 32 E RS1data_32 [31:0] $end
$var wire 32 F RS1data_31 [31:0] $end
$var wire 32 G RS1data_2 [31:0] $end
$var wire 5 H RS1addr_3 [4:0] $end
$var wire 5 I RS1addr_2 [4:0] $end
$var wire 32 J RDdata_5_tmp [31:0] $end
$var wire 32 K RDdata_5 [31:0] $end
$var wire 5 L RDaddr_5_tmp [4:0] $end
$var wire 5 M RDaddr_5 [4:0] $end
$var wire 5 N RDaddr_4 [4:0] $end
$var wire 5 O RDaddr_3 [4:0] $end
$var wire 5 P RDaddr_2 [4:0] $end
$var wire 1 Q PCWrite_tmp $end
$var wire 1 R PCWrite $end
$var wire 7 S Op [6:0] $end
$var wire 1 T NoOp_tmp $end
$var wire 1 U NoOp $end
$var wire 1 V MemtoReg_tmp $end
$var wire 1 W MemtoReg_5 $end
$var wire 1 X MemtoReg_4 $end
$var wire 1 Y MemtoReg_3 $end
$var wire 1 Z MemtoReg_2 $end
$var wire 1 [ MemWrite_tmp $end
$var wire 1 \ MemWrite_4 $end
$var wire 1 ] MemWrite_3 $end
$var wire 1 ^ MemWrite_2 $end
$var wire 1 _ MemRead_tmp $end
$var wire 1 ` MemRead_4 $end
$var wire 1 a MemRead_3 $end
$var wire 1 b MemRead_2 $end
$var wire 32 c MemData_5 [31:0] $end
$var wire 32 d MemData_4 [31:0] $end
$var wire 32 e MUX_3 [31:0] $end
$var wire 2 f ForwardB [1:0] $end
$var wire 2 g ForwardA [1:0] $end
$var wire 1 h Equal $end
$var wire 1 i Branch_tmp $end
$var wire 1 j Branch $end
$var wire 1 k ALUSrc_3 $end
$var wire 1 l ALUSrc_2 $end
$var wire 32 m ALUResult_5 [31:0] $end
$var wire 32 n ALUResult_4 [31:0] $end
$var wire 32 o ALUResult_3 [31:0] $end
$var wire 2 p ALUOp_3 [1:0] $end
$var wire 2 q ALUOp_2 [1:0] $end
$var wire 3 r ALUCrtl_3 [2:0] $end
$var reg 32 s counter [31:0] $end
$scope module ALU $end
$var wire 32 t data2_i [31:0] $end
$var wire 32 u data1_i [31:0] $end
$var wire 3 v ALUCtrl_i [2:0] $end
$var reg 32 w data_o [31:0] $end
$upscope $end
$scope module ALU_Control $end
$var wire 10 x funct_i [9:0] $end
$var wire 2 y ALUOp_i [1:0] $end
$var wire 3 z ALUCtrl_o [2:0] $end
$upscope $end
$scope module Control $end
$var wire 2 { ALUOp_o [1:0] $end
$var wire 1 l ALUSrc_o $end
$var wire 1 i Branch_o $end
$var wire 1 _ MemRead_o $end
$var wire 1 [ MemWrite_o $end
$var wire 1 V MemtoReg_o $end
$var wire 1 U NoOp_i $end
$var wire 7 | Op_i [6:0] $end
$var wire 1 : RegWrite_o $end
$upscope $end
$scope module Data_Memory $end
$var wire 1 ! clk_i $end
$var wire 32 } data_o [31:0] $end
$var wire 32 ~ data_i [31:0] $end
$var wire 32 !" addr_i [31:0] $end
$var wire 1 \ MemWrite_i $end
$var wire 1 ` MemRead_i $end
$upscope $end
$scope module EXMEM $end
$var wire 32 "" ALUResult_i [31:0] $end
$var wire 1 ! clk_i $end
$var wire 1 = RegWrite_i $end
$var wire 32 #" RS2data_i [31:0] $end
$var wire 5 $" RDaddr_i [4:0] $end
$var wire 1 Y MemtoReg_i $end
$var wire 1 ] MemWrite_i $end
$var wire 1 a MemRead_i $end
$var reg 32 %" ALUResult_o [31:0] $end
$var reg 1 ` MemRead_o $end
$var reg 1 \ MemWrite_o $end
$var reg 1 X MemtoReg_o $end
$var reg 5 &" RDaddr_o [4:0] $end
$var reg 32 '" RS2data_o [31:0] $end
$var reg 1 < RegWrite_o $end
$upscope $end
$scope module Forwarding_Unit $end
$var wire 5 (" RDaddrM_i [4:0] $end
$var wire 5 )" RDaddrW_i [4:0] $end
$var wire 1 < RegWriteM_i $end
$var wire 1 *" cA1 $end
$var wire 1 +" cA2 $end
$var wire 1 ," cB1 $end
$var wire 1 -" cB2 $end
$var wire 2 ." tmpB [1:0] $end
$var wire 2 /" tmpA [1:0] $end
$var wire 1 ; RegWriteW_i $end
$var wire 5 0" RS2addr_i [4:0] $end
$var wire 5 1" RS1addr_i [4:0] $end
$var wire 2 2" ForwardB_o [1:0] $end
$var wire 2 3" ForwardA_o [1:0] $end
$upscope $end
$scope module Hazard_Detection_Unit $end
$var wire 1 T NoOp_o $end
$var wire 1 Q PCWrite_o $end
$var wire 5 4" RS1addr_i [4:0] $end
$var wire 5 5" RS2addr_i [4:0] $end
$var wire 1 6 Stall_o $end
$var wire 1 6" tmp $end
$var wire 5 7" RDaddr_i [4:0] $end
$var wire 1 a MemRead_i $end
$upscope $end
$scope module IDEX $end
$var wire 2 8" ALUOp_i [1:0] $end
$var wire 1 l ALUSrc_i $end
$var wire 1 b MemRead_i $end
$var wire 1 ^ MemWrite_i $end
$var wire 1 Z MemtoReg_i $end
$var wire 5 9" RDaddr_i [4:0] $end
$var wire 5 :" RS1addr_i [4:0] $end
$var wire 5 ;" RS2addr_i [4:0] $end
$var wire 1 > RegWrite_i $end
$var wire 1 ! clk_i $end
$var wire 10 <" funct_i [9:0] $end
$var wire 32 =" SE_i [31:0] $end
$var wire 32 >" RS2data_i [31:0] $end
$var wire 32 ?" RS1data_i [31:0] $end
$var reg 2 @" ALUOp_o [1:0] $end
$var reg 1 k ALUSrc_o $end
$var reg 1 a MemRead_o $end
$var reg 1 ] MemWrite_o $end
$var reg 1 Y MemtoReg_o $end
$var reg 5 A" RDaddr_o [4:0] $end
$var reg 5 B" RS1addr_o [4:0] $end
$var reg 32 C" RS1data_o [31:0] $end
$var reg 5 D" RS2addr_o [4:0] $end
$var reg 32 E" RS2data_o [31:0] $end
$var reg 1 = RegWrite_o $end
$var reg 32 F" SE_o [31:0] $end
$var reg 10 G" funct_o [9:0] $end
$upscope $end
$scope module IFID $end
$var wire 1 ) Flush_i $end
$var wire 1 6 Stall_i $end
$var wire 1 ! clk_i $end
$var wire 32 H" pc_i [31:0] $end
$var wire 32 I" instr_i [31:0] $end
$var reg 32 J" instr_o [31:0] $end
$var reg 32 K" pc_o [31:0] $end
$upscope $end
$scope module Instruction_Memory $end
$var wire 32 L" instr_o [31:0] $end
$var wire 32 M" addr_i [31:0] $end
$upscope $end
$scope module MEMWB $end
$var wire 32 N" ALUResult_i [31:0] $end
$var wire 32 O" MemData_i [31:0] $end
$var wire 1 X MemtoReg_i $end
$var wire 5 P" RDaddr_i [4:0] $end
$var wire 1 < RegWrite_i $end
$var wire 1 ! clk_i $end
$var reg 32 Q" ALUResult_o [31:0] $end
$var reg 32 R" MemData_o [31:0] $end
$var reg 1 W MemtoReg_o $end
$var reg 5 S" RDaddr_o [4:0] $end
$var reg 1 ; RegWrite_o $end
$upscope $end
$scope module MUX_A $end
$var wire 32 T" data1_i [31:0] $end
$var wire 32 U" data2_i [31:0] $end
$var wire 1 V" select_i $end
$var wire 32 W" data_o [31:0] $end
$upscope $end
$scope module MUX_AA $end
$var wire 32 X" data1_i [31:0] $end
$var wire 32 Y" data2_i [31:0] $end
$var wire 1 Z" select_i $end
$var wire 32 [" data_o [31:0] $end
$upscope $end
$scope module MUX_ALUSrc $end
$var wire 32 \" data2_i [31:0] $end
$var wire 1 k select_i $end
$var wire 32 ]" data_o [31:0] $end
$var wire 32 ^" data1_i [31:0] $end
$upscope $end
$scope module MUX_B $end
$var wire 32 _" data1_i [31:0] $end
$var wire 32 `" data2_i [31:0] $end
$var wire 1 a" select_i $end
$var wire 32 b" data_o [31:0] $end
$upscope $end
$scope module MUX_BB $end
$var wire 32 c" data1_i [31:0] $end
$var wire 32 d" data2_i [31:0] $end
$var wire 1 e" select_i $end
$var wire 32 f" data_o [31:0] $end
$upscope $end
$scope module MUX_WB $end
$var wire 32 g" data1_i [31:0] $end
$var wire 32 h" data2_i [31:0] $end
$var wire 1 W select_i $end
$var wire 32 i" data_o [31:0] $end
$upscope $end
$scope module MUX_Zero $end
$var wire 32 j" data1_i [31:0] $end
$var wire 32 k" data2_i [31:0] $end
$var wire 1 ) select_i $end
$var wire 32 l" data_o [31:0] $end
$upscope $end
$scope module PC $end
$var wire 1 R PCWrite_i $end
$var wire 1 ! clk_i $end
$var wire 32 m" pc_i [31:0] $end
$var wire 1 " rst_i $end
$var wire 1 # start_i $end
$var reg 32 n" pc_o [31:0] $end
$upscope $end
$scope module Registers $end
$var wire 5 o" RDaddr_i [4:0] $end
$var wire 32 p" RDdata_i [31:0] $end
$var wire 5 q" RS1addr_i [4:0] $end
$var wire 5 r" RS2addr_i [4:0] $end
$var wire 1 ; RegWrite_i $end
$var wire 1 ! clk_i $end
$var wire 32 s" RS2data_o [31:0] $end
$var wire 32 t" RS1data_o [31:0] $end
$upscope $end
$scope module Sign_Extend $end
$var wire 32 u" data_i [31:0] $end
$var wire 32 v" data_o [31:0] $end
$var wire 32 w" data_9 [31:0] $end
$var wire 32 x" data_678 [31:0] $end
$var wire 32 y" data_10 [31:0] $end
$upscope $end
$upscope $end
$upscope $end
$enddefinitions $end
#0
$dumpvars
bx y"
bx x"
bx w"
bx v"
bx u"
bx t"
bx s"
bx r"
bx q"
b0 p"
b0 o"
b0 n"
b100 m"
b100 l"
bx k"
b100 j"
b0 i"
b0 h"
b0 g"
bx f"
0e"
bx d"
bx c"
bx b"
0a"
b0 `"
bx _"
bx ^"
bx ]"
bx \"
bx ["
0Z"
bx Y"
bx X"
bx W"
0V"
b0 U"
bx T"
b0 S"
b0 R"
b0 Q"
b0 P"
b0 O"
bx N"
b0 M"
b10101110000011 L"
bx K"
bx J"
b10101110000011 I"
b0 H"
b0 G"
bx F"
bx E"
b0 D"
bx C"
b0 B"
b0 A"
bx @"
bx ?"
bx >"
bx ="
bx <"
bx ;"
bx :"
bx 9"
bx 8"
b0 7"
x6"
bx 5"
bx 4"
b0 3"
b0 2"
b0 1"
b0 0"
b0 /"
b0 ."
0-"
0,"
0+"
0*"
b0 )"
b0 ("
b0 '"
b0 &"
bx %"
b0 $"
bx #"
b0 ""
bx !"
b0 ~
b0 }
bx |
bx {
bx1x z
bx y
b0 x
b0 w
bx1x v
bx u
bx t
b1 s
bx1x r
bx q
bx p
b0 o
bx n
b0 m
xl
xk
0j
xi
xh
b0 g
b0 f
bx e
b0 d
b0 c
0b
xa
0`
x_
0^
x]
0\
x[
0Z
xY
0X
0W
xV
0U
0T
bx S
1R
1Q
bx P
b0 O
b0 N
b0 M
b0 L
b0 K
b0 J
bx I
b0 H
bx G
bx F
bx E
bx D
b0 C
bx B
bx A
bx @
b0 ?
0>
x=
0<
0;
x:
bx 9
bx0 8
bx 7
06
bx 5
b0 4
b10101110000011 3
bx 2
b100 1
b0 0
bx /
bx .
b100 -
bx ,
bx +
bx *
0)
b0 (
b11 '
b100000 &
b0 %
b0 $
0#
1"
1!
$end
#12
1#
0"
#25
0!
#50
1l
0[
1V
1_
1:
bx r
bx v
bx z
0i
b0 q
b0 {
b0 8"
b0 .
b0 k"
b0 8
1h
b0 B
b0 >"
b0 s"
b0 G
b0 ?"
b0 t"
b0 9
b0 ="
b0 v"
0)
bx J
bx i"
b0x0x d
b0x0x }
b0x0x O"
b10 5
b10 <"
b10111 P
b10111 9"
b0 D
b0 5"
b0 ;"
b0 r"
b0 I
b0 4"
b0 :"
b0 q"
b11 S
b11 |
b0 x"
b10111 w"
b10000001011 y"
b11100010111000000010110011 3
b11100010111000000010110011 I"
b11100010111000000010110011 L"
b1000 1
b1000 l"
b1000 m"
1Z
0j
0^
1b
1>
b10 s
bx m
bx Q"
bx g"
bx ?
bx ~
bx '"
b0 n
b0 !"
b0 %"
b0 N"
b0 Y"
b0 d"
x\
x`
xX
x<
bx O
bx $"
bx 7"
bx A"
bx C
bx 0"
bx D"
bx H
bx 1"
bx B"
bx 4
bx x
bx G"
0]
0a
0Y
0=
b0 /
b0 K"
b10101110000011 *
b10101110000011 u"
b10101110000011 2
b10101110000011 J"
b1000 -
b1000 j"
b100 0
b100 H"
b100 M"
b100 n"
b1 $
1!
#75
0!
#100
0>
0:
0Z
0b
0R
1U
0l
0V
0_
0Q
16
1T
b10 q
b10 {
b10 8"
b100000100000 8
b10000010000 9
b10000010000 ="
b10000010000 v"
b0 @
b0 #"
b0 ^"
b0 f"
b0 E
b0 u
b0 ["
b11 r
b11 v
b11 z
0h
b11111111111111111111111111101000 B
b11111111111111111111111111101000 >"
b11111111111111111111111111101000 s"
b1000 5
b1000 <"
b1 P
b1 9"
b11000 D
b11000 5"
b11000 ;"
b11000 r"
b10111 I
b10111 4"
b10111 :"
b10111 q"
b110011 S
b110011 |
b111000 x"
b100001 w"
b10000010000 y"
16"
b0 +
b0 b"
b0 c"
b0 ,
b0 W"
b0 X"
b0 e
b0 t
b0 ]"
b0 d
b0 }
b0 O"
b0x0x J
b0x0x i"
b1000000001000001101000010010011 3
b1000000001000001101000010010011 I"
b1000000001000001101000010010011 L"
b1100 1
b1100 l"
b1100 m"
b100000100100 .
b100000100100 k"
b100 /
b100 K"
b11100010111000000010110011 *
b11100010111000000010110011 u"
b11100010111000000010110011 2
b11100010111000000010110011 J"
b10111 O
b10111 $"
b10111 7"
b10111 A"
b0 C
b0 0"
b0 D"
b0 H
b0 1"
b0 B"
b10 4
b10 x
b10 G"
b0 7
b0 F"
b0 \"
b0 A
b0 E"
b0 _"
b0 F
b0 C"
b0 T"
1k
b0 p
b0 y
b0 @"
1a
1Y
1=
bx N
bx &"
bx ("
bx P"
0\
0`
0X
0<
b0x0x c
b0x0x R"
b0x0x h"
b0 m
b0 Q"
b0 g"
xW
x;
b11 s
b1100 -
b1100 j"
b1000 0
b1000 H"
b1000 M"
b1000 n"
b10 $
1!
#125
0!
#150
1>
1:
b11 q
b11 {
b11 8"
b11111111111111111111111111101000 o
b11111111111111111111111111101000 w
b11111111111111111111111111101000 ""
1R
0U
1Z"
b11111111111111111111111111101000 e
b11111111111111111111111111101000 t
b11111111111111111111111111101000 ]"
1Q
b10 g
b10 3"
b11111111111111111111111111101000 @
b11111111111111111111111111101000 #"
b11111111111111111111111111101000 ^"
b11111111111111111111111111101000 f"
06
0T
bx M
bx )"
bx o"
b0 J
b0 i"
1*"
b101 d
b101 }
b101 O"
06"
b11111111111111111111111111101000 +
b11111111111111111111111111101000 b"
b11111111111111111111111111101000 c"
b100 s
bx L
bx S"
b0 c
b0 R"
b0 h"
0W
0;
b10111 N
b10111 &"
b10111 ("
b10111 P"
b0 ?
b0 ~
b0 '"
1`
1X
1<
b1 O
b1 $"
b1 7"
b1 A"
b11000 C
b11000 0"
b11000 D"
b10111 H
b10111 1"
b10111 B"
b1000 4
b1000 x
b1000 G"
b10000010000 7
b10000010000 F"
b10000010000 \"
b11111111111111111111111111101000 A
b11111111111111111111111111101000 E"
b11111111111111111111111111101000 _"
0k
b10 p
b10 y
b10 @"
0a
0Y
0=
b11 $
b1 (
1!
#175
0!
#200
b101 ,
b101 W"
b101 X"
1l
1V"
b1 q
b1 {
b1 8"
b100000000100 8
0Z"
b1 /"
16"
b10000000010 9
b10000000010 ="
b10000000010 v"
b101 r
b101 v
b101 z
b1 g
b1 3"
b11111111111111111111111110001000 o
b11111111111111111111111110001000 w
b11111111111111111111111110001000 ""
b101 K
b101 U"
b101 `"
b101 p"
1h
b0 B
b0 >"
b0 s"
1+"
b100000101 5
b100000101 <"
b10 D
b10 5"
b10 ;"
b10 r"
b1 I
b1 4"
b1 :"
b1 q"
b10011 S
b10011 |
b10000000010 x"
b10000000001 w"
b11000000000 y"
0*"
b101 E
b101 u
b101 ["
b0 d
b0 }
b0 O"
b10111 M
b10111 )"
b10111 o"
b101 J
b101 i"
b1000000000111011000000100110011 3
b1000000000111011000000100110011 I"
b1000000000111011000000100110011 L"
b10000 1
b10000 l"
b10000 m"
b100000001100 .
b100000001100 k"
b1000 /
b1000 K"
b1000000001000001101000010010011 *
b1000000001000001101000010010011 u"
b1000000001000001101000010010011 2
b1000000001000001101000010010011 J"
b11 p
b11 y
b11 @"
1=
b1 N
b1 &"
b1 ("
b1 P"
b11111111111111111111111111101000 ?
b11111111111111111111111111101000 ~
b11111111111111111111111111101000 '"
b11111111111111111111111111101000 n
b11111111111111111111111111101000 !"
b11111111111111111111111111101000 %"
b11111111111111111111111111101000 N"
b11111111111111111111111111101000 Y"
b11111111111111111111111111101000 d"
0`
0X
0<
b10111 L
b10111 S"
b101 c
b101 R"
b101 h"
1W
1;
b101 s
b10000 -
b10000 j"
b1100 0
b1100 H"
b1100 M"
b1100 n"
b100 $
1!
#225
0!
#250
0l
b11111111111111111111111110001000 E
b11111111111111111111111110001000 u
b11111111111111111111111110001000 ["
1Z"
0V"
b0 ,
b0 W"
b0 X"
b10 g
b10 3"
b111 r
b111 v
b111 z
b11 q
b11 {
b11 8"
b10000000010 8
b11111111111111111111111111101000 K
b11111111111111111111111111101000 U"
b11111111111111111111111111101000 `"
b11111111111111111111111111101000 p"
1*"
b0 /"
b0 @
b0 #"
b0 ^"
b0 f"
b11111111111111111111111111100010 o
b11111111111111111111111111100010 w
b11111111111111111111111111100010 ""
0h
b11111111111111111111111111100101 G
b11111111111111111111111111100101 ?"
b11111111111111111111111111100101 t"
b1000000001 9
b1000000001 ="
b1000000001 v"
b1 M
b1 )"
b1 o"
b11111111111111111111111111101000 J
b11111111111111111111111111101000 i"
0+"
b0 +
b0 b"
b0 c"
b10000000010 e
b10000000010 t
b10000000010 ]"
b100000000 5
b100000000 <"
b10 P
b10 9"
b1 D
b1 5"
b1 ;"
b1 r"
b11011 I
b11011 4"
b11011 :"
b11011 q"
b110011 S
b110011 |
b10000000001 x"
b10000000010 w"
b1000000001 y"
b1011100001000110110011 3
b1011100001000110110011 I"
b1011100001000110110011 L"
b10100 1
b10100 l"
b10100 m"
b110 s
b1 L
b1 S"
b0 c
b0 R"
b0 h"
b11111111111111111111111111101000 m
b11111111111111111111111111101000 Q"
b11111111111111111111111111101000 g"
0W
0;
b11111111111111111111111110001000 n
b11111111111111111111111110001000 !"
b11111111111111111111111110001000 %"
b11111111111111111111111110001000 N"
b11111111111111111111111110001000 Y"
b11111111111111111111111110001000 d"
1<
b10 C
b10 0"
b10 D"
b1 H
b1 1"
b1 B"
b100000101 4
b100000101 x
b100000101 G"
b10000000010 7
b10000000010 F"
b10000000010 \"
b0 A
b0 E"
b0 _"
1k
b1 p
b1 y
b1 @"
b10000001110 .
b10000001110 k"
b1100 /
b1100 K"
b1000000000111011000000100110011 *
b1000000000111011000000100110011 u"
b1000000000111011000000100110011 2
b1000000000111011000000100110011 J"
b10100 -
b10100 j"
b10000 0
b10000 H"
b10000 M"
b10000 n"
b101 $
1!
#275
0!
#300
b11 o
b11 w
b11 ""
b100000000010 8
b11111111111111111111111111100010 @
b11111111111111111111111111100010 #"
b11111111111111111111111111100010 ^"
b11111111111111111111111111100010 f"
b100 r
b100 v
b100 z
b10000000001 9
b10000000001 ="
b10000000001 v"
1e"
0Z"
b111000 G
b111000 ?"
b111000 t"
b1 ."
b10 f
b10 2"
b0 g
b0 3"
b11111111111111111111111110001000 K
b11111111111111111111111110001000 U"
b11111111111111111111111110001000 `"
b11111111111111111111111110001000 p"
b0 B
b0 >"
b0 s"
b1 5
b1 <"
b11 P
b11 9"
b10 D
b10 5"
b10 ;"
b10 r"
b11100 I
b11100 4"
b11100 :"
b11100 q"
b10 x"
b11 w"
b10000000001 y"
16"
1-"
1,"
0*"
b11111111111111111111111111100101 ,
b11111111111111111111111111100101 W"
b11111111111111111111111111100101 X"
b11111111111111111111111111100010 e
b11111111111111111111111111100010 t
b11111111111111111111111111100010 ]"
b11111111111111111111111111100101 E
b11111111111111111111111111100101 u
b11111111111111111111111111100101 ["
b11111111111111111111111110001000 J
b11111111111111111111111110001000 i"
b1100010010100010100011 3
b1100010010100010100011 I"
b1100010010100010100011 L"
b11000 1
b11000 l"
b11000 m"
b100000010010 .
b100000010010 k"
b10000 /
b10000 K"
b1011100001000110110011 *
b1011100001000110110011 u"
b1011100001000110110011 2
b1011100001000110110011 J"
b10 O
b10 $"
b10 7"
b10 A"
b1 C
b1 0"
b1 D"
b11011 H
b11011 1"
b11011 B"
b100000000 4
b100000000 x
b100000000 G"
b1000000001 7
b1000000001 F"
b1000000001 \"
b11111111111111111111111111100101 F
b11111111111111111111111111100101 C"
b11111111111111111111111111100101 T"
0k
b11 p
b11 y
b11 @"
b0 ?
b0 ~
b0 '"
b11111111111111111111111111100010 n
b11111111111111111111111111100010 !"
b11111111111111111111111111100010 %"
b11111111111111111111111111100010 N"
b11111111111111111111111111100010 Y"
b11111111111111111111111111100010 d"
b11111111111111111111111110001000 m
b11111111111111111111111110001000 Q"
b11111111111111111111111110001000 g"
1;
b111 s
b11000 -
b11000 j"
b10100 0
b10100 H"
b10100 M"
b10100 n"
b110 $
1!
#325
0!
#350
1^
1l
1[
0>
b10 r
b10 v
b10 z
0:
b100010 8
b111000000 o
b111000000 w
b111000000 ""
b10 q
b10 {
b10 8"
b10001 9
b10001 ="
b10001 v"
b11111111111111111111111111100010 K
b11111111111111111111111111100010 U"
b11111111111111111111111111100010 `"
b11111111111111111111111111100010 p"
b11 e
b11 t
b11 ]"
b0 ."
b111000 E
b111000 u
b111000 ["
1h
b0 G
b0 ?"
b0 t"
b11111111111111111111111111100010 J
b11111111111111111111111111100010 i"
b11 @
b11 #"
b11 ^"
b11 f"
0-"
b111000 ,
b111000 W"
b111000 X"
b10 5
b10 <"
b10001 P
b10001 9"
b11 D
b11 5"
b11 ;"
b11 r"
b10 I
b10 4"
b10 :"
b10 q"
b100011 S
b100011 |
b11 x"
b10001 w"
b10000001000 y"
b11100000000000010010011 3
b11100000000000010010011 I"
b11100000000000010010011 L"
b11100 1
b11100 l"
b11100 m"
b1000 s
b11111111111111111111111111100010 m
b11111111111111111111111111100010 Q"
b11111111111111111111111111100010 g"
b10 N
b10 &"
b10 ("
b10 P"
b11111111111111111111111111100010 ?
b11111111111111111111111111100010 ~
b11111111111111111111111111100010 '"
b11 n
b11 !"
b11 %"
b11 N"
b11 Y"
b11 d"
b11 O
b11 $"
b11 7"
b11 A"
b10 C
b10 0"
b10 D"
b11100 H
b11100 1"
b11100 B"
b1 4
b1 x
b1 G"
b10000000001 7
b10000000001 F"
b10000000001 \"
b111000 F
b111000 C"
b111000 T"
b110110 .
b110110 k"
b10100 /
b10100 K"
b1100010010100010100011 *
b1100010010100010100011 u"
b1100010010100010100011 2
b1100010010100010100011 J"
b11100 -
b11100 j"
b11000 0
b11000 H"
b11000 M"
b11000 n"
b111 $
1!
#375
0!
#400
0^
0[
1>
1V"
1:
b11 r
b11 v
b11 z
b1 g
b1 3"
b1 q
b1 {
b1 8"
b1110 8
b1 /"
b111 9
b111 ="
b111 v"
b11 E
b11 u
b11 ["
b10100 o
b10100 w
b10100 ""
1+"
b11 K
b11 U"
b11 `"
b11 p"
b0 5
b0 <"
b1 P
b1 9"
b111 D
b111 5"
b111 ;"
b111 r"
b0 I
b0 4"
b0 :"
b0 q"
b10011 S
b10011 |
b111 x"
b1 w"
b10000000000 y"
06"
b11 ,
b11 W"
b11 X"
b10001 e
b10001 t
b10001 ]"
b111000000 @
b111000000 #"
b111000000 ^"
b111000000 f"
b10 M
b10 )"
b10 o"
b11 J
b11 i"
b10001000001000000110110011 3
b10001000001000000110110011 I"
b10001000001000000110110011 L"
b100000 1
b100000 l"
b100000 m"
b100110 .
b100110 k"
b11000 /
b11000 K"
b11100000000000010010011 *
b11100000000000010010011 u"
b11100000000000010010011 2
b11100000000000010010011 J"
b10001 O
b10001 $"
b10001 7"
b10001 A"
b11 C
b11 0"
b11 D"
b10 H
b10 1"
b10 B"
b10 4
b10 x
b10 G"
b10001 7
b10001 F"
b10001 \"
b0 F
b0 C"
b0 T"
1k
b10 p
b10 y
b10 @"
1]
0=
b11 N
b11 &"
b11 ("
b11 P"
b11 ?
b11 ~
b11 '"
b111000000 n
b111000000 !"
b111000000 %"
b111000000 N"
b111000000 Y"
b111000000 d"
b10 L
b10 S"
b11 m
b11 Q"
b11 g"
b1001 s
b100000 -
b100000 j"
b11100 0
b11100 H"
b11100 M"
b11100 n"
b1000 $
1!
#425
0!
#450
0l
b0 E
b0 u
b0 ["
0V"
b0 ,
b0 W"
b0 X"
0e"
b0 g
b0 3"
b110 r
b110 v
b110 z
b11 q
b11 {
b11 8"
b100000100010 8
b111000000 K
b111000000 U"
b111000000 `"
b111000000 p"
b0 f
b0 2"
b0 /"
b111 o
b111 w
b111 ""
b11 B
b11 >"
b11 s"
16"
0h
b11111111111111111111111111100010 G
b11111111111111111111111111100010 ?"
b11111111111111111111111111100010 t"
b10000010001 9
b10000010001 ="
b10000010001 v"
b11 M
b11 )"
b11 o"
b111000000 J
b111000000 i"
b0 @
b0 #"
b0 ^"
b0 f"
0,"
0+"
b111 e
b111 t
b111 ]"
b1000 5
b1000 <"
b11 P
b11 9"
b10 D
b10 5"
b10 ;"
b10 r"
b1 I
b1 4"
b1 :"
b1 q"
b110011 S
b110011 |
b100010 x"
b100011 w"
b10000010001 y"
b1100001111101100110011 3
b1100001111101100110011 I"
b1100001111101100110011 L"
b100100 1
b100100 l"
b100100 m"
b1010 s
b11 L
b11 S"
b111000000 m
b111000000 Q"
b111000000 g"
b10001 N
b10001 &"
b10001 ("
b10001 P"
b111000000 ?
b111000000 ~
b111000000 '"
b10100 n
b10100 !"
b10100 %"
b10100 N"
b10100 Y"
b10100 d"
1\
0<
b1 O
b1 $"
b1 7"
b1 A"
b111 C
b111 0"
b111 D"
b0 H
b0 1"
b0 B"
b0 4
b0 x
b0 G"
b111 7
b111 F"
b111 \"
b1 p
b1 y
b1 @"
0]
1=
b100000111110 .
b100000111110 k"
b11100 /
b11100 K"
b10001000001000000110110011 *
b10001000001000000110110011 u"
b10001000001000000110110011 2
b10001000001000000110110011 J"
b100100 -
b100100 j"
b100000 0
b100000 H"
b100000 M"
b100000 n"
b1001 $
1!
#475
0!
#500
b101100 8
b10110 9
b10110 ="
b10110 v"
1Z"
b101 r
b101 v
b101 z
b111000000 B
b111000000 >"
b111000000 s"
b10 g
b10 3"
b11 @
b11 #"
b11 ^"
b11 f"
b111 E
b111 u
b111 ["
b10101 o
b10101 w
b10101 ""
b10100 K
b10100 U"
b10100 `"
b10100 p"
b111 5
b111 <"
b10110 P
b10110 9"
b11 D
b11 5"
b11 ;"
b11 r"
b11 x"
b10110 w"
b1011 y"
16"
1*"
b11 +
b11 b"
b11 c"
b11111111111111111111111111100010 ,
b11111111111111111111111111100010 W"
b11111111111111111111111111100010 X"
b11 e
b11 t
b11 ]"
b10001 M
b10001 )"
b10001 o"
b10100 J
b10100 i"
b1100001100101010110011 3
b1100001100101010110011 I"
b1100001100101010110011 L"
b101000 1
b101000 l"
b101000 m"
b1001100 .
b1001100 k"
b100000 /
b100000 K"
b1100001111101100110011 *
b1100001111101100110011 u"
b1100001111101100110011 2
b1100001111101100110011 J"
b11 O
b11 $"
b11 7"
b11 A"
b10 C
b10 0"
b10 D"
b1 H
b1 1"
b1 B"
b1000 4
b1000 x
b1000 G"
b10000010001 7
b10000010001 F"
b10000010001 \"
b11 A
b11 E"
b11 _"
b11111111111111111111111111100010 F
b11111111111111111111111111100010 C"
b11111111111111111111111111100010 T"
0k
b11 p
b11 y
b11 @"
b1 N
b1 &"
b1 ("
b1 P"
b0 ?
b0 ~
b0 '"
b111 n
b111 !"
b111 %"
b111 N"
b111 Y"
b111 d"
0\
1<
b10001 L
b10001 S"
b10100 m
b10100 Q"
b10100 g"
0;
b1011 s
b101000 -
b101000 j"
b100100 0
b100100 H"
b100100 M"
b100100 n"
b1010 $
1!
#525
0!
