CPU.vcd
$date
	Thu Dec 16 14:38:10 2021
$end
$version
	Icarus Verilog
$end
$timescale
	1s
$end
$scope module TestBench $end
$var reg 1 ! Clk $end
$var reg 1 " Reset $end
$var reg 1 # Start $end
$var integer 32 $ counter [31:0] $end
$var integer 32 % flush [31:0] $end
$var integer 32 & i [31:0] $end
$var integer 32 ' outfile [31:0] $end
$var integer 32 ( stall [31:0] $end
$scope module CPU $end
$var wire 1 ) Flush $end
$var wire 32 * SE_21 [31:0] $end
$var wire 1 ! clk_i $end
$var wire 1 " rst_i $end
$var wire 1 # start_i $end
$var wire 32 + tmpB [31:0] $end
$var wire 32 , tmpA [31:0] $end
$var wire 32 - pc_predicted [31:0] $end
$var wire 32 . pc_branch [31:0] $end
$var wire 32 / pc_2 [31:0] $end
$var wire 32 0 pc_1 [31:0] $end
$var wire 32 1 pc_0 [31:0] $end
$var wire 32 2 instr_2 [31:0] $end
$var wire 32 3 instr_1 [31:0] $end
$var wire 10 4 funct_3 [9:0] $end
$var wire 10 5 funct_2 [9:0] $end
$var wire 1 6 Stall $end
$var wire 32 7 SE_3 [31:0] $end
$var wire 32 8 SE_23 [31:0] $end
$var wire 32 9 SE_22 [31:0] $end
$var wire 1 : RegWrite_tmp $end
$var wire 1 ; RegWrite_5 $end
$var wire 1 < RegWrite_4 $end
$var wire 1 = RegWrite_3 $end
$var wire 1 > RegWrite_2 $end
$var wire 32 ? RS2data_4 [31:0] $end
$var wire 32 @ RS2data_32 [31:0] $end
$var wire 32 A RS2data_31 [31:0] $end
$var wire 32 B RS2data_2 [31:0] $end
$var wire 5 C RS2addr_3 [4:0] $end
$var wire 5 D RS2addr_2 [4:0] $end
$var wire 32 E RS1data_32 [31:0] $end
$var wire 32 F RS1data_31 [31:0] $end
$var wire 32 G RS1data_2 [31:0] $end
$var wire 5 H RS1addr_3 [4:0] $end
$var wire 5 I RS1addr_2 [4:0] $end
$var wire 32 J RDdata_5_tmp [31:0] $end
$var wire 32 K RDdata_5 [31:0] $end
$var wire 5 L RDaddr_5_tmp [4:0] $end
$var wire 5 M RDaddr_5 [4:0] $end
$var wire 5 N RDaddr_4 [4:0] $end
$var wire 5 O RDaddr_3 [4:0] $end
$var wire 5 P RDaddr_2 [4:0] $end
$var wire 1 Q PCWrite_tmp $end
$var wire 1 R PCWrite $end
$var wire 7 S Op [6:0] $end
$var wire 1 T NoOp_tmp $end
$var wire 1 U NoOp $end
$var wire 1 V MemtoReg_tmp $end
$var wire 1 W MemtoReg_5 $end
$var wire 1 X MemtoReg_4 $end
$var wire 1 Y MemtoReg_3 $end
$var wire 1 Z MemtoReg_2 $end
$var wire 1 [ MemWrite_tmp $end
$var wire 1 \ MemWrite_4 $end
$var wire 1 ] MemWrite_3 $end
$var wire 1 ^ MemWrite_2 $end
$var wire 1 _ MemRead_tmp $end
$var wire 1 ` MemRead_4 $end
$var wire 1 a MemRead_3 $end
$var wire 1 b MemRead_2 $end
$var wire 32 c MemData_5 [31:0] $end
$var wire 32 d MemData_4 [31:0] $end
$var wire 32 e MUX_3 [31:0] $end
$var wire 2 f ForwardB [1:0] $end
$var wire 2 g ForwardA [1:0] $end
$var wire 1 h Equal $end
$var wire 1 i Branch_tmp $end
$var wire 1 j Branch $end
$var wire 1 k ALUSrc_3 $end
$var wire 1 l ALUSrc_2 $end
$var wire 32 m ALUResult_5 [31:0] $end
$var wire 32 n ALUResult_4 [31:0] $end
$var wire 32 o ALUResult_3 [31:0] $end
$var wire 2 p ALUOp_3 [1:0] $end
$var wire 2 q ALUOp_2 [1:0] $end
$var wire 3 r ALUCrtl_3 [2:0] $end
$var reg 32 s counter [31:0] $end
$scope module ALU $end
$var wire 32 t data2_i [31:0] $end
$var wire 32 u data1_i [31:0] $end
$var wire 3 v ALUCtrl_i [2:0] $end
$var reg 32 w data_o [31:0] $end
$upscope $end
$scope module ALU_Control $end
$var wire 10 x funct_i [9:0] $end
$var wire 2 y ALUOp_i [1:0] $end
$var wire 3 z ALUCtrl_o [2:0] $end
$upscope $end
$scope module Control $end
$var wire 2 { ALUOp_o [1:0] $end
$var wire 1 l ALUSrc_o $end
$var wire 1 i Branch_o $end
$var wire 1 _ MemRead_o $end
$var wire 1 [ MemWrite_o $end
$var wire 1 V MemtoReg_o $end
$var wire 1 U NoOp_i $end
$var wire 7 | Op_i [6:0] $end
$var wire 1 : RegWrite_o $end
$upscope $end
$scope module Data_Memory $end
$var wire 1 ! clk_i $end
$var wire 32 } data_o [31:0] $end
$var wire 32 ~ data_i [31:0] $end
$var wire 32 !" addr_i [31:0] $end
$var wire 1 \ MemWrite_i $end
$var wire 1 ` MemRead_i $end
$upscope $end
$scope module EXMEM $end
$var wire 32 "" ALUResult_i [31:0] $end
$var wire 1 ! clk_i $end
$var wire 1 = RegWrite_i $end
$var wire 32 #" RS2data_i [31:0] $end
$var wire 5 $" RDaddr_i [4:0] $end
$var wire 1 Y MemtoReg_i $end
$var wire 1 ] MemWrite_i $end
$var wire 1 a MemRead_i $end
$var reg 32 %" ALUResult_o [31:0] $end
$var reg 1 ` MemRead_o $end
$var reg 1 \ MemWrite_o $end
$var reg 1 X MemtoReg_o $end
$var reg 5 &" RDaddr_o [4:0] $end
$var reg 32 '" RS2data_o [31:0] $end
$var reg 1 < RegWrite_o $end
$upscope $end
$scope module Forwarding_Unit $end
$var wire 5 (" RDaddrM_i [4:0] $end
$var wire 5 )" RDaddrW_i [4:0] $end
$var wire 1 < RegWriteM_i $end
$var wire 1 *" cA1 $end
$var wire 1 +" cA2 $end
$var wire 1 ," cB1 $end
$var wire 1 -" cB2 $end
$var wire 2 ." tmpB [1:0] $end
$var wire 2 /" tmpA [1:0] $end
$var wire 1 ; RegWriteW_i $end
$var wire 5 0" RS2addr_i [4:0] $end
$var wire 5 1" RS1addr_i [4:0] $end
$var wire 2 2" ForwardB_o [1:0] $end
$var wire 2 3" ForwardA_o [1:0] $end
$upscope $end
$scope module Hazard_Detection_Unit $end
$var wire 1 T NoOp_o $end
$var wire 1 Q PCWrite_o $end
$var wire 5 4" RS1addr_i [4:0] $end
$var wire 5 5" RS2addr_i [4:0] $end
$var wire 1 6 Stall_o $end
$var wire 1 6" tmp $end
$var wire 5 7" RDaddr_i [4:0] $end
$var wire 1 a MemRead_i $end
$upscope $end
$scope module IDEX $end
$var wire 2 8" ALUOp_i [1:0] $end
$var wire 1 l ALUSrc_i $end
$var wire 1 b MemRead_i $end
$var wire 1 ^ MemWrite_i $end
$var wire 1 Z MemtoReg_i $end
$var wire 5 9" RDaddr_i [4:0] $end
$var wire 5 :" RS1addr_i [4:0] $end
$var wire 5 ;" RS2addr_i [4:0] $end
$var wire 1 > RegWrite_i $end
$var wire 1 ! clk_i $end
$var wire 10 <" funct_i [9:0] $end
$var wire 32 =" SE_i [31:0] $end
$var wire 32 >" RS2data_i [31:0] $end
$var wire 32 ?" RS1data_i [31:0] $end
$var reg 2 @" ALUOp_o [1:0] $end
$var reg 1 k ALUSrc_o $end
$var reg 1 a MemRead_o $end
$var reg 1 ] MemWrite_o $end
$var reg 1 Y MemtoReg_o $end
$var reg 5 A" RDaddr_o [4:0] $end
$var reg 5 B" RS1addr_o [4:0] $end
$var reg 32 C" RS1data_o [31:0] $end
$var reg 5 D" RS2addr_o [4:0] $end
$var reg 32 E" RS2data_o [31:0] $end
$var reg 1 = RegWrite_o $end
$var reg 32 F" SE_o [31:0] $end
$var reg 10 G" funct_o [9:0] $end
$upscope $end
$scope module IFID $end
$var wire 1 ) Flush_i $end
$var wire 1 6 Stall_i $end
$var wire 1 ! clk_i $end
$var wire 32 H" pc_i [31:0] $end
$var wire 32 I" instr_i [31:0] $end
$var reg 32 J" instr_o [31:0] $end
$var reg 32 K" pc_o [31:0] $end
$upscope $end
$scope module Instruction_Memory $end
$var wire 32 L" instr_o [31:0] $end
$var wire 32 M" addr_i [31:0] $end
$upscope $end
$scope module MEMWB $end
$var wire 32 N" ALUResult_i [31:0] $end
$var wire 32 O" MemData_i [31:0] $end
$var wire 1 X MemtoReg_i $end
$var wire 5 P" RDaddr_i [4:0] $end
$var wire 1 < RegWrite_i $end
$var wire 1 ! clk_i $end
$var reg 32 Q" ALUResult_o [31:0] $end
$var reg 32 R" MemData_o [31:0] $end
$var reg 1 W MemtoReg_o $end
$var reg 5 S" RDaddr_o [4:0] $end
$var reg 1 ; RegWrite_o $end
$upscope $end
$scope module MUX_A $end
$var wire 32 T" data1_i [31:0] $end
$var wire 32 U" data2_i [31:0] $end
$var wire 1 V" select_i $end
$var wire 32 W" data_o [31:0] $end
$upscope $end
$scope module MUX_AA $end
$var wire 32 X" data1_i [31:0] $end
$var wire 32 Y" data2_i [31:0] $end
$var wire 1 Z" select_i $end
$var wire 32 [" data_o [31:0] $end
$upscope $end
$scope module MUX_ALUSrc $end
$var wire 32 \" data2_i [31:0] $end
$var wire 1 k select_i $end
$var wire 32 ]" data_o [31:0] $end
$var wire 32 ^" data1_i [31:0] $end
$upscope $end
$scope module MUX_B $end
$var wire 32 _" data1_i [31:0] $end
$var wire 32 `" data2_i [31:0] $end
$var wire 1 a" select_i $end
$var wire 32 b" data_o [31:0] $end
$upscope $end
$scope module MUX_BB $end
$var wire 32 c" data1_i [31:0] $end
$var wire 32 d" data2_i [31:0] $end
$var wire 1 e" select_i $end
$var wire 32 f" data_o [31:0] $end
$upscope $end
$scope module MUX_WB $end
$var wire 32 g" data1_i [31:0] $end
$var wire 32 h" data2_i [31:0] $end
$var wire 1 W select_i $end
$var wire 32 i" data_o [31:0] $end
$upscope $end
$scope module MUX_Zero $end
$var wire 32 j" data1_i [31:0] $end
$var wire 32 k" data2_i [31:0] $end
$var wire 1 ) select_i $end
$var wire 32 l" data_o [31:0] $end
$upscope $end
$scope module PC $end
$var wire 1 R PCWrite_i $end
$var wire 1 ! clk_i $end
$var wire 32 m" pc_i [31:0] $end
$var wire 1 " rst_i $end
$var wire 1 # start_i $end
$var reg 32 n" pc_o [31:0] $end
$upscope $end
$scope module Registers $end
$var wire 5 o" RDaddr_i [4:0] $end
$var wire 32 p" RDdata_i [31:0] $end
$var wire 5 q" RS1addr_i [4:0] $end
$var wire 5 r" RS2addr_i [4:0] $end
$var wire 1 ; RegWrite_i $end
$var wire 1 ! clk_i $end
$var wire 32 s" RS2data_o [31:0] $end
$var wire 32 t" RS1data_o [31:0] $end
$upscope $end
$scope module Sign_Extend $end
$var wire 32 u" data_i [31:0] $end
$var wire 32 v" data_o [31:0] $end
$var wire 32 w" data_9 [31:0] $end
$var wire 32 x" data_678 [31:0] $end
$var wire 32 y" data_10 [31:0] $end
$upscope $end
$upscope $end
$upscope $end
$enddefinitions $end
#0
$dumpvars
bx y"
bx x"
bx w"
bx v"
bx u"
bx t"
bx s"
bx r"
bx q"
b0 p"
b0 o"
b0 n"
b100 m"
b100 l"
bx k"
b100 j"
b0 i"
b0 h"
b0 g"
bx f"
0e"
bx d"
bx c"
bx b"
0a"
b0 `"
bx _"
bx ^"
bx ]"
bx \"
bx ["
0Z"
bx Y"
bx X"
bx W"
0V"
b0 U"
bx T"
b0 S"
b0 R"
b0 Q"
b0 P"
b0 O"
bx N"
b0 M"
b10010000000011 L"
bx K"
bx J"
b10010000000011 I"
b0 H"
b0 G"
bx F"
bx E"
b0 D"
bx C"
b0 B"
b0 A"
bx @"
bx ?"
bx >"
bx ="
bx <"
bx ;"
bx :"
bx 9"
bx 8"
b0 7"
x6"
bx 5"
bx 4"
b0 3"
b0 2"
b0 1"
b0 0"
b0 /"
b0 ."
0-"
0,"
0+"
0*"
b0 )"
b0 ("
b0 '"
b0 &"
bx %"
b0 $"
bx #"
b0 ""
bx !"
b0 ~
b0 }
bx |
bx {
bx1x z
bx y
b0 x
b0 w
bx1x v
bx u
bx t
b1 s
bx1x r
bx q
bx p
b0 o
bx n
b0 m
xl
xk
0j
xi
xh
b0 g
b0 f
bx e
b0 d
b0 c
0b
xa
0`
x_
0^
x]
0\
x[
0Z
xY
0X
0W
xV
0U
0T
bx S
1R
1Q
bx P
b0 O
b0 N
b0 M
b0 L
b0 K
b0 J
bx I
b0 H
bx G
bx F
bx E
bx D
b0 C
bx B
bx A
bx @
b0 ?
0>
x=
0<
0;
x:
bx 9
bx0 8
bx 7
06
bx 5
b0 4
b10010000000011 3
bx 2
b100 1
b0 0
bx /
bx .
b100 -
bx ,
bx +
bx *
0)
b0 (
b11 '
b100000 &
b0 %
b0 $
0#
1"
1!
$end
#12
1#
0"
#25
0!
#50
1l
0[
1V
1_
1:
bx r
bx v
bx z
0i
b0 q
b0 {
b0 8"
b0 .
b0 k"
b0 8
1h
b0 B
b0 >"
b0 s"
b0 G
b0 ?"
b0 t"
b0 9
b0 ="
b0 v"
0)
bx J
bx i"
b0x0x d
b0x0x }
b0x0x O"
b10 5
b10 <"
b1000 P
b1000 9"
b0 D
b0 5"
b0 ;"
b0 r"
b0 I
b0 4"
b0 :"
b0 q"
b11 S
b11 |
b0 x"
b1000 w"
b100 y"
b100001000000010010110011 3
b100001000000010010110011 I"
b100001000000010010110011 L"
b1000 1
b1000 l"
b1000 m"
1Z
0j
0^
1b
1>
b10 s
bx m
bx Q"
bx g"
bx ?
bx ~
bx '"
b0 n
b0 !"
b0 %"
b0 N"
b0 Y"
b0 d"
x\
x`
xX
x<
bx O
bx $"
bx 7"
bx A"
bx C
bx 0"
bx D"
bx H
bx 1"
bx B"
bx 4
bx x
bx G"
0]
0a
0Y
0=
b0 /
b0 K"
b10010000000011 *
b10010000000011 u"
b10010000000011 2
b10010000000011 J"
b1000 -
b1000 j"
b100 0
b100 H"
b100 M"
b100 n"
b1 $
1!
#75
0!
#100
0>
0:
0Z
0b
0R
1U
0l
0V
0_
0Q
16
1T
b10 q
b10 {
b10 8"
b100000001000 8
b10000000100 9
b10000000100 ="
b10000000100 v"
b0 @
b0 #"
b0 ^"
b0 f"
b0 E
b0 u
b0 ["
b11 r
b11 v
b11 z
b0 5
b0 <"
b1001 P
b1001 9"
b1000 D
b1000 5"
b1000 ;"
b1000 r"
b1000 I
b1000 4"
b1000 :"
b1000 q"
b110011 S
b110011 |
b1000 x"
b1001 w"
b10000000100 y"
16"
b0 +
b0 b"
b0 c"
b0 ,
b0 W"
b0 X"
b0 e
b0 t
b0 ]"
b0 d
b0 }
b0 O"
b0x0x J
b0x0x i"
b10000000010010100000011 3
b10000000010010100000011 I"
b10000000010010100000011 L"
b1100 1
b1100 l"
b1100 m"
b100000001100 .
b100000001100 k"
b100 /
b100 K"
b100001000000010010110011 *
b100001000000010010110011 u"
b100001000000010010110011 2
b100001000000010010110011 J"
b1000 O
b1000 $"
b1000 7"
b1000 A"
b0 C
b0 0"
b0 D"
b0 H
b0 1"
b0 B"
b10 4
b10 x
b10 G"
b0 7
b0 F"
b0 \"
b0 A
b0 E"
b0 _"
b0 F
b0 C"
b0 T"
1k
b0 p
b0 y
b0 @"
1a
1Y
1=
bx N
bx &"
bx ("
bx P"
0\
0`
0X
0<
b0x0x c
b0x0x R"
b0x0x h"
b0 m
b0 Q"
b0 g"
xW
x;
b11 s
b1100 -
b1100 j"
b1000 0
b1000 H"
b1000 M"
b1000 n"
b10 $
1!
#125
0!
#150
1>
1:
b11 q
b11 {
b11 8"
1R
0U
1Z"
1e"
1Q
b10 g
b10 3"
b10 f
b10 2"
06
0T
bx M
bx )"
bx o"
b0 J
b0 i"
1*"
1,"
b101 d
b101 }
b101 O"
06"
b100 s
bx L
bx S"
b0 c
b0 R"
b0 h"
0W
0;
b1000 N
b1000 &"
b1000 ("
b1000 P"
b0 ?
b0 ~
b0 '"
1`
1X
1<
b1001 O
b1001 $"
b1001 7"
b1001 A"
b1000 C
b1000 0"
b1000 D"
b1000 H
b1000 1"
b1000 B"
b0 4
b0 x
b0 G"
b10000000100 7
b10000000100 F"
b10000000100 \"
0k
b10 p
b10 y
b10 @"
0a
0Y
0=
b11 $
b1 (
1!
#175
0!
#200
b101 e
b101 t
b101 ]"
b1010 o
b1010 w
b1010 ""
b101 @
b101 #"
b101 ^"
b101 f"
b101 E
b101 u
b101 ["
1Z
1b
b101 +
b101 b"
b101 c"
b101 ,
b101 W"
b101 X"
1l
1V
1_
1>
1a"
1V"
1:
b0 q
b0 {
b0 8"
b1000 8
0Z"
0e"
b1 ."
b1 /"
b100 9
b100 ="
b100 v"
b1 g
b1 3"
b1 f
b1 2"
b101 K
b101 U"
b101 `"
b101 p"
1-"
1+"
b10 5
b10 <"
b1010 P
b1010 9"
b100 D
b100 5"
b100 ;"
b100 r"
b0 I
b0 4"
b0 :"
b0 q"
b11 S
b11 |
b100 x"
b1010 w"
b101 y"
0*"
0,"
b0 d
b0 }
b0 O"
b1000 M
b1000 )"
b1000 o"
b101 J
b101 i"
b101001010000010110110011 3
b101001010000010110110011 I"
b101001010000010110110011 L"
b10000 1
b10000 l"
b10000 m"
b10000 .
b10000 k"
b1000 /
b1000 K"
b10000000010010100000011 *
b10000000010010100000011 u"
b10000000010010100000011 2
b10000000010010100000011 J"
b11 p
b11 y
b11 @"
1=
b1001 N
b1001 &"
b1001 ("
b1001 P"
0`
0X
0<
b1000 L
b1000 S"
b101 c
b101 R"
b101 h"
1W
1;
b101 s
b10000 -
b10000 j"
b1100 0
b1100 H"
b1100 M"
b1100 n"
b100 $
1!
#225
0!
#250
0>
0:
0Z
0b
0l
0V
0_
b0 E
b0 u
b0 ["
b0 @
b0 #"
b0 ^"
b0 f"
0a"
0V"
0R
1U
b0 ,
b0 W"
b0 X"
b0 +
b0 b"
b0 c"
b0 f
b0 2"
b0 g
b0 3"
0Q
b10 q
b10 {
b10 8"
b100000001010 8
b0 K
b0 U"
b0 `"
b0 p"
b0 ."
b0 /"
b100 o
b100 w
b100 ""
16
1T
16"
b10000000101 9
b10000000101 ="
b10000000101 v"
b1001 M
b1001 )"
b1001 o"
b0 J
b0 i"
0-"
0+"
b100 e
b100 t
b100 ]"
b0 5
b0 <"
b1011 P
b1011 9"
b1010 D
b1010 5"
b1010 ;"
b1010 r"
b1010 I
b1010 4"
b1010 :"
b1010 q"
b110011 S
b110011 |
b1010 x"
b1011 w"
b10000000101 y"
b100000000010011000000011 3
b100000000010011000000011 I"
b100000000010011000000011 L"
b10100 1
b10100 l"
b10100 m"
b110 s
b1001 L
b1001 S"
b0 c
b0 R"
b0 h"
0W
0;
b101 ?
b101 ~
b101 '"
b1010 n
b1010 !"
b1010 %"
b1010 N"
b1010 Y"
b1010 d"
1<
b1010 O
b1010 $"
b1010 7"
b1010 A"
b100 C
b100 0"
b100 D"
b0 H
b0 1"
b0 B"
b10 4
b10 x
b10 G"
b100 7
b100 F"
b100 \"
1k
b0 p
b0 y
b0 @"
1a
1Y
b100000010110 .
b100000010110 k"
b1100 /
b1100 K"
b101001010000010110110011 *
b101001010000010110110011 u"
b101001010000010110110011 2
b101001010000010110110011 J"
b10100 -
b10100 j"
b10000 0
b10000 H"
b10000 M"
b10000 n"
b101 $
1!
#275
0!
#300
1>
1:
b11 q
b11 {
b11 8"
b100 @
b100 #"
b100 ^"
b100 f"
b100 E
b100 u
b100 ["
1R
0U
1e"
1Z"
1Q
b10 f
b10 2"
b10 g
b10 3"
b1000 o
b1000 w
b1000 ""
06
0T
b1010 K
b1010 U"
b1010 `"
b1010 p"
06"
1,"
1*"
b100 e
b100 t
b100 ]"
b110 d
b110 }
b110 O"
b1010 J
b1010 i"
b1011 O
b1011 $"
b1011 7"
b1011 A"
b1010 C
b1010 0"
b1010 D"
b1010 H
b1010 1"
b1010 B"
b0 4
b0 x
b0 G"
b10000000101 7
b10000000101 F"
b10000000101 \"
0k
b10 p
b10 y
b10 @"
0a
0Y
0=
b1010 N
b1010 &"
b1010 ("
b1010 P"
b0 ?
b0 ~
b0 '"
b100 n
b100 !"
b100 %"
b100 N"
b100 Y"
b100 d"
1`
1X
b1010 m
b1010 Q"
b1010 g"
1;
b111 s
b110 $
b10 (
1!
#325
0!
#350
b110 ,
b110 W"
b110 X"
b110 +
b110 b"
b110 c"
1Z
1b
1V"
1a"
1l
1V
1_
1>
1:
b1 /"
b1 ."
0Z"
0e"
b0 q
b0 {
b0 8"
b10000 8
1+"
1-"
b110 K
b110 U"
b110 `"
b110 p"
b1 g
b1 3"
b1 f
b1 2"
b1100 o
b1100 w
b1100 ""
b110 e
b110 t
b110 ]"
0h
b101 B
b101 >"
b101 s"
b1000 9
b1000 ="
b1000 v"
b1010 M
b1010 )"
b1010 o"
b110 J
b110 i"
0*"
0,"
b110 E
b110 u
b110 ["
b110 @
b110 #"
b110 ^"
b110 f"
b0 d
b0 }
b0 O"
b10 5
b10 <"
b1100 P
b1100 9"
b1000 D
b1000 5"
b1000 ;"
b1000 r"
b0 I
b0 4"
b0 :"
b0 q"
b11 S
b11 |
b1000 x"
b1100 w"
b110 y"
b110001100000011010110011 3
b110001100000011010110011 I"
b110001100000011010110011 L"
b11000 1
b11000 l"
b11000 m"
b1000 s
b1010 L
b1010 S"
b110 c
b110 R"
b110 h"
b100 m
b100 Q"
b100 g"
1W
b1011 N
b1011 &"
b1011 ("
b1011 P"
b100 ?
b100 ~
b100 '"
b1000 n
b1000 !"
b1000 %"
b1000 N"
b1000 Y"
b1000 d"
0`
0X
0<
b11 p
b11 y
b11 @"
1=
b100000 .
b100000 k"
b10000 /
b10000 K"
b100000000010011000000011 *
b100000000010011000000011 u"
b100000000010011000000011 2
b100000000010011000000011 J"
b11000 -
b11000 j"
b10100 0
b10100 H"
b10100 M"
b10100 n"
b111 $
1!
#375
0!
#400
0>
0:
0Z
0b
0R
1U
0l
0V
0_
0Q
0a"
0V"
b0 E
b0 u
b0 ["
b101 @
b101 #"
b101 ^"
b101 f"
16
1T
b10 q
b10 {
b10 8"
b100000001100 8
b0 f
b0 2"
b0 g
b0 3"
b0 ,
b0 W"
b0 X"
b101 +
b101 b"
b101 c"
1h
b0 B
b0 >"
b0 s"
16"
b10000000110 9
b10000000110 ="
b10000000110 v"
b0 ."
b0 /"
b1000 o
b1000 w
b1000 ""
b1000 K
b1000 U"
b1000 `"
b1000 p"
b0 5
b0 <"
b1101 P
b1101 9"
b1100 D
b1100 5"
b1100 ;"
b1100 r"
b1100 I
b1100 4"
b1100 :"
b1100 q"
b110011 S
b110011 |
b1100 x"
b1101 w"
b10000000110 y"
0-"
0+"
b1000 e
b1000 t
b1000 ]"
b1011 M
b1011 )"
b1011 o"
b1000 J
b1000 i"
b110000000010011100000011 3
b110000000010011100000011 I"
b110000000010011100000011 L"
b11100 1
b11100 l"
b11100 m"
b100000100000 .
b100000100000 k"
b10100 /
b10100 K"
b110001100000011010110011 *
b110001100000011010110011 u"
b110001100000011010110011 2
b110001100000011010110011 J"
b1100 O
b1100 $"
b1100 7"
b1100 A"
b1000 C
b1000 0"
b1000 D"
b0 H
b0 1"
b0 B"
b10 4
b10 x
b10 G"
b1000 7
b1000 F"
b1000 \"
b101 A
b101 E"
b101 _"
1k
b0 p
b0 y
b0 @"
1a
1Y
b110 ?
b110 ~
b110 '"
b1100 n
b1100 !"
b1100 %"
b1100 N"
b1100 Y"
b1100 d"
1<
b1011 L
b1011 S"
b0 c
b0 R"
b0 h"
b1000 m
b1000 Q"
b1000 g"
0W
0;
b1001 s
b11100 -
b11100 j"
b11000 0
b11000 H"
b11000 M"
b11000 n"
b1000 $
1!
#425
0!
#450
1>
1:
b11 q
b11 {
b11 8"
b1000 E
b1000 u
b1000 ["
1R
0U
1Z"
1e"
1Q
b1100 K
b1100 U"
b1100 `"
b1100 p"
b10 g
b10 3"
b10 f
b10 2"
b1000 @
b1000 #"
b1000 ^"
b1000 f"
b10000 o
b10000 w
b10000 ""
06
0T
b1100 J
b1100 i"
1*"
1,"
b1010 d
b1010 }
b1010 O"
06"
b0 +
b0 b"
b0 c"
b1000 e
b1000 t
b1000 ]"
b1010 s
b1100 m
b1100 Q"
b1100 g"
1;
b1100 N
b1100 &"
b1100 ("
b1100 P"
b101 ?
b101 ~
b101 '"
b1000 n
b1000 !"
b1000 %"
b1000 N"
b1000 Y"
b1000 d"
1`
1X
b1101 O
b1101 $"
b1101 7"
b1101 A"
b1100 C
b1100 0"
b1100 D"
b1100 H
b1100 1"
b1100 B"
b0 4
b0 x
b0 G"
b10000000110 7
b10000000110 F"
b10000000110 \"
b0 A
b0 E"
b0 _"
0k
b10 p
b10 y
b10 @"
0a
0Y
0=
b1001 $
b11 (
1!
#475
0!
#500
1Z
1b
b1010 ,
b1010 W"
b1010 X"
b1010 +
b1010 b"
b1010 c"
1l
1V
1_
1>
1V"
1a"
1:
b0 q
b0 {
b0 8"
b11000 8
0Z"
0e"
b1 /"
b1 ."
0h
b1010 B
b1010 >"
b1010 s"
b1100 9
b1100 ="
b1100 v"
b1 g
b1 3"
b1 f
b1 2"
b10100 o
b10100 w
b10100 ""
b1010 e
b1010 t
b1010 ]"
1+"
1-"
b1010 K
b1010 U"
b1010 `"
b1010 p"
b10 5
b10 <"
b1110 P
b1110 9"
b0 I
b0 4"
b0 :"
b0 q"
b11 S
b11 |
b1110 w"
b111 y"
0*"
0,"
b1010 E
b1010 u
b1010 ["
b1010 @
b1010 #"
b1010 ^"
b1010 f"
b0 d
b0 }
b0 O"
b1100 M
b1100 )"
b1100 o"
b1010 J
b1010 i"
b111001110000011110110011 3
b111001110000011110110011 I"
b111001110000011110110011 L"
b100000 1
b100000 l"
b100000 m"
b110000 .
b110000 k"
b11000 /
b11000 K"
b110000000010011100000011 *
b110000000010011100000011 u"
b110000000010011100000011 2
b110000000010011100000011 J"
b11 p
b11 y
b11 @"
1=
b1101 N
b1101 &"
b1101 ("
b1101 P"
b1000 ?
b1000 ~
b1000 '"
b10000 n
b10000 !"
b10000 %"
b10000 N"
b10000 Y"
b10000 d"
0`
0X
0<
b1100 L
b1100 S"
b1010 c
b1010 R"
b1010 h"
b1000 m
b1000 Q"
b1000 g"
1W
b1011 s
b100000 -
b100000 j"
b11100 0
b11100 H"
b11100 M"
b11100 n"
b1010 $
1!
#525
0!
#550
0>
0:
0Z
0b
0a"
0l
0V
0_
b0 E
b0 u
b0 ["
b1010 @
b1010 #"
b1010 ^"
b1010 f"
b0 f
b0 2"
0V"
0R
1U
b0 ,
b0 W"
b0 X"
b1010 +
b1010 b"
b1010 c"
b0 ."
b0 g
b0 3"
0Q
b10 q
b10 {
b10 8"
b100000001110 8
b10000 K
b10000 U"
b10000 `"
b10000 p"
1h
b0 B
b0 >"
b0 s"
0-"
b0 /"
b1100 o
b1100 w
b1100 ""
16
1T
16"
b10000000111 9
b10000000111 ="
b10000000111 v"
b1101 M
b1101 )"
b1101 o"
b10000 J
b10000 i"
0+"
b1100 e
b1100 t
b1100 ]"
b0 5
b0 <"
b1111 P
b1111 9"
b1110 D
b1110 5"
b1110 ;"
b1110 r"
b1110 I
b1110 4"
b1110 :"
b1110 q"
b110011 S
b110011 |
b1110 x"
b1111 w"
b10000000111 y"
b1110011000000100000110011 3
b1110011000000100000110011 I"
b1110011000000100000110011 L"
b100100 1
b100100 l"
b100100 m"
b1100 s
b1101 L
b1101 S"
b0 c
b0 R"
b0 h"
b10000 m
b10000 Q"
b10000 g"
0W
0;
b1010 ?
b1010 ~
b1010 '"
b10100 n
b10100 !"
b10100 %"
b10100 N"
b10100 Y"
b10100 d"
1<
b1110 O
b1110 $"
b1110 7"
b1110 A"
b0 H
b0 1"
b0 B"
b10 4
b10 x
b10 G"
b1100 7
b1100 F"
b1100 \"
b1010 A
b1010 E"
b1010 _"
1k
b0 p
b0 y
b0 @"
1a
1Y
b100000101010 .
b100000101010 k"
b11100 /
b11100 K"
b111001110000011110110011 *
b111001110000011110110011 u"
b111001110000011110110011 2
b111001110000011110110011 J"
b100100 -
b100100 j"
b100000 0
b100000 H"
b100000 M"
b100000 n"
b1011 $
1!
#575
0!
#600
1>
1:
b11 q
b11 {
b11 8"
b1100 E
b1100 u
b1100 ["
1R
0U
1e"
1Z"
1Q
b10 f
b10 2"
b10 g
b10 3"
b1100 @
b1100 #"
b1100 ^"
b1100 f"
b11000 o
b11000 w
b11000 ""
06
0T
b10010 d
b10010 }
b10010 O"
b10100 K
b10100 U"
b10100 `"
b10100 p"
06"
1,"
1*"
b0 +
b0 b"
b0 c"
b1100 e
b1100 t
b1100 ]"
b10100 J
b10100 i"
b1111 O
b1111 $"
b1111 7"
b1111 A"
b1110 C
b1110 0"
b1110 D"
b1110 H
b1110 1"
b1110 B"
b0 4
b0 x
b0 G"
b10000000111 7
b10000000111 F"
b10000000111 \"
b0 A
b0 E"
b0 _"
0k
b10 p
b10 y
b10 @"
0a
0Y
0=
b1110 N
b1110 &"
b1110 ("
b1110 P"
b1100 n
b1100 !"
b1100 %"
b1100 N"
b1100 Y"
b1100 d"
1`
1X
b10100 m
b10100 Q"
b10100 g"
1;
b1101 s
b1100 $
b100 (
1!
#625
0!
