CPU.vcd
$date
	Fri Jan 14 17:51:20 2022
$end
$version
	Icarus Verilog
$end
$timescale
	1s
$end
$scope module testbench $end
$var wire 256 ! mem_cpu_data [255:0] $end
$var wire 1 " mem_cpu_ack $end
$var wire 1 # cpu_mem_write $end
$var wire 1 $ cpu_mem_enable $end
$var wire 256 % cpu_mem_data [255:0] $end
$var wire 32 & cpu_mem_addr [31:0] $end
$var reg 1 ' Clk $end
$var reg 1 ( Reset $end
$var reg 1 ) Start $end
$var reg 27 * address [26:0] $end
$var reg 1 + flag $end
$var reg 4 , index [3:0] $end
$var reg 25 - tag [24:0] $end
$var integer 32 . counter [31:0] $end
$var integer 32 / i [31:0] $end
$var integer 32 0 j [31:0] $end
$var integer 32 1 outfile [31:0] $end
$var integer 32 2 outfile2 [31:0] $end
$scope module CPU $end
$var wire 1 3 Flush $end
$var wire 32 4 SE_21 [31:0] $end
$var wire 1 ' clk_i $end
$var wire 1 ( rst_i $end
$var wire 1 ) start_i $end
$var wire 32 5 tmpB [31:0] $end
$var wire 32 6 tmpA [31:0] $end
$var wire 32 7 pc_predicted [31:0] $end
$var wire 32 8 pc_branch [31:0] $end
$var wire 32 9 pc_2 [31:0] $end
$var wire 32 : pc_1 [31:0] $end
$var wire 32 ; pc_0 [31:0] $end
$var wire 1 # mem_write_o $end
$var wire 1 $ mem_enable_o $end
$var wire 256 < mem_data_o [255:0] $end
$var wire 256 = mem_data_i [255:0] $end
$var wire 32 > mem_addr_o [31:0] $end
$var wire 1 " mem_ack_i $end
$var wire 32 ? instr_2 [31:0] $end
$var wire 32 @ instr_1 [31:0] $end
$var wire 10 A funct_3 [9:0] $end
$var wire 10 B funct_2 [9:0] $end
$var wire 1 C Stall $end
$var wire 32 D SE_3 [31:0] $end
$var wire 32 E SE_23 [31:0] $end
$var wire 32 F SE_22 [31:0] $end
$var wire 1 G RegWrite_tmp $end
$var wire 1 H RegWrite_5 $end
$var wire 1 I RegWrite_4 $end
$var wire 1 J RegWrite_3 $end
$var wire 1 K RegWrite_2 $end
$var wire 32 L RS2data_4 [31:0] $end
$var wire 32 M RS2data_32 [31:0] $end
$var wire 32 N RS2data_31 [31:0] $end
$var wire 32 O RS2data_2 [31:0] $end
$var wire 5 P RS2addr_3 [4:0] $end
$var wire 5 Q RS2addr_2 [4:0] $end
$var wire 32 R RS1data_32 [31:0] $end
$var wire 32 S RS1data_31 [31:0] $end
$var wire 32 T RS1data_2 [31:0] $end
$var wire 5 U RS1addr_3 [4:0] $end
$var wire 5 V RS1addr_2 [4:0] $end
$var wire 32 W RDdata_5_tmp [31:0] $end
$var wire 32 X RDdata_5 [31:0] $end
$var wire 5 Y RDaddr_5_tmp [4:0] $end
$var wire 5 Z RDaddr_5 [4:0] $end
$var wire 5 [ RDaddr_4 [4:0] $end
$var wire 5 \ RDaddr_3 [4:0] $end
$var wire 5 ] RDaddr_2 [4:0] $end
$var wire 1 ^ PCWrite_tmp $end
$var wire 1 _ PCWrite $end
$var wire 7 ` Op [6:0] $end
$var wire 1 a NoOp_tmp $end
$var wire 1 b NoOp $end
$var wire 1 c Miss_stall $end
$var wire 1 d MemtoReg_tmp $end
$var wire 1 e MemtoReg_5 $end
$var wire 1 f MemtoReg_4 $end
$var wire 1 g MemtoReg_3 $end
$var wire 1 h MemtoReg_2 $end
$var wire 1 i MemWrite_tmp $end
$var wire 1 j MemWrite_4 $end
$var wire 1 k MemWrite_3 $end
$var wire 1 l MemWrite_2 $end
$var wire 1 m MemRead_tmp $end
$var wire 1 n MemRead_4 $end
$var wire 1 o MemRead_3 $end
$var wire 1 p MemRead_2 $end
$var wire 32 q MemData_5 [31:0] $end
$var wire 32 r MemData_4 [31:0] $end
$var wire 32 s MUX_3 [31:0] $end
$var wire 2 t ForwardB [1:0] $end
$var wire 2 u ForwardA [1:0] $end
$var wire 1 v Equal $end
$var wire 1 w Branch_tmp $end
$var wire 1 x Branch $end
$var wire 1 y ALUSrc_3 $end
$var wire 1 z ALUSrc_2 $end
$var wire 32 { ALUResult_5 [31:0] $end
$var wire 32 | ALUResult_4 [31:0] $end
$var wire 32 } ALUResult_3 [31:0] $end
$var wire 2 ~ ALUOp_3 [1:0] $end
$var wire 2 !" ALUOp_2 [1:0] $end
$var wire 3 "" ALUCrtl_3 [2:0] $end
$var reg 32 #" counter [31:0] $end
$scope module ALU $end
$var wire 32 $" data2_i [31:0] $end
$var wire 32 %" data1_i [31:0] $end
$var wire 3 &" ALUCtrl_i [2:0] $end
$var reg 32 '" data_o [31:0] $end
$upscope $end
$scope module ALU_Control $end
$var wire 10 (" funct_i [9:0] $end
$var wire 2 )" ALUOp_i [1:0] $end
$var wire 3 *" ALUCtrl_o [2:0] $end
$upscope $end
$scope module Control $end
$var wire 2 +" ALUOp_o [1:0] $end
$var wire 1 z ALUSrc_o $end
$var wire 1 w Branch_o $end
$var wire 1 m MemRead_o $end
$var wire 1 i MemWrite_o $end
$var wire 1 d MemtoReg_o $end
$var wire 1 b NoOp_i $end
$var wire 7 ," Op_i [6:0] $end
$var wire 1 G RegWrite_o $end
$upscope $end
$scope module EXMEM $end
$var wire 32 -" ALUResult_i [31:0] $end
$var wire 1 ' clk_i $end
$var wire 1 J RegWrite_i $end
$var wire 32 ." RS2data_i [31:0] $end
$var wire 5 /" RDaddr_i [4:0] $end
$var wire 1 c Miss_stall_i $end
$var wire 1 g MemtoReg_i $end
$var wire 1 k MemWrite_i $end
$var wire 1 o MemRead_i $end
$var reg 32 0" ALUResult_o [31:0] $end
$var reg 1 n MemRead_o $end
$var reg 1 j MemWrite_o $end
$var reg 1 f MemtoReg_o $end
$var reg 5 1" RDaddr_o [4:0] $end
$var reg 32 2" RS2data_o [31:0] $end
$var reg 1 I RegWrite_o $end
$upscope $end
$scope module Forwarding_Unit $end
$var wire 5 3" RDaddrM_i [4:0] $end
$var wire 5 4" RDaddrW_i [4:0] $end
$var wire 1 I RegWriteM_i $end
$var wire 1 5" cA1 $end
$var wire 1 6" cA2 $end
$var wire 1 7" cB1 $end
$var wire 1 8" cB2 $end
$var wire 2 9" tmpB [1:0] $end
$var wire 2 :" tmpA [1:0] $end
$var wire 1 H RegWriteW_i $end
$var wire 5 ;" RS2addr_i [4:0] $end
$var wire 5 <" RS1addr_i [4:0] $end
$var wire 2 =" ForwardB_o [1:0] $end
$var wire 2 >" ForwardA_o [1:0] $end
$upscope $end
$scope module Hazard_Detection_Unit $end
$var wire 1 a NoOp_o $end
$var wire 1 ^ PCWrite_o $end
$var wire 5 ?" RS1addr_i [4:0] $end
$var wire 5 @" RS2addr_i [4:0] $end
$var wire 1 C Stall_o $end
$var wire 1 A" tmp $end
$var wire 5 B" RDaddr_i [4:0] $end
$var wire 1 o MemRead_i $end
$upscope $end
$scope module IDEX $end
$var wire 2 C" ALUOp_i [1:0] $end
$var wire 1 z ALUSrc_i $end
$var wire 1 p MemRead_i $end
$var wire 1 l MemWrite_i $end
$var wire 1 h MemtoReg_i $end
$var wire 5 D" RDaddr_i [4:0] $end
$var wire 5 E" RS1addr_i [4:0] $end
$var wire 5 F" RS2addr_i [4:0] $end
$var wire 1 K RegWrite_i $end
$var wire 1 ' clk_i $end
$var wire 10 G" funct_i [9:0] $end
$var wire 32 H" SE_i [31:0] $end
$var wire 32 I" RS2data_i [31:0] $end
$var wire 32 J" RS1data_i [31:0] $end
$var wire 1 c Miss_stall_i $end
$var reg 2 K" ALUOp_o [1:0] $end
$var reg 1 y ALUSrc_o $end
$var reg 1 o MemRead_o $end
$var reg 1 k MemWrite_o $end
$var reg 1 g MemtoReg_o $end
$var reg 5 L" RDaddr_o [4:0] $end
$var reg 5 M" RS1addr_o [4:0] $end
$var reg 32 N" RS1data_o [31:0] $end
$var reg 5 O" RS2addr_o [4:0] $end
$var reg 32 P" RS2data_o [31:0] $end
$var reg 1 J RegWrite_o $end
$var reg 32 Q" SE_o [31:0] $end
$var reg 10 R" funct_o [9:0] $end
$upscope $end
$scope module IFID $end
$var wire 1 3 Flush_i $end
$var wire 1 S" Miss_stall_i $end
$var wire 1 T" Stall_i $end
$var wire 1 ' clk_i $end
$var wire 32 U" pc_i [31:0] $end
$var wire 32 V" instr_i [31:0] $end
$var reg 32 W" instr_o [31:0] $end
$var reg 32 X" pc_o [31:0] $end
$upscope $end
$scope module Instruction_Memory $end
$var wire 32 Y" instr_o [31:0] $end
$var wire 32 Z" addr_i [31:0] $end
$upscope $end
$scope module MEMWB $end
$var wire 32 [" ALUResult_i [31:0] $end
$var wire 1 f MemtoReg_i $end
$var wire 5 \" RDaddr_i [4:0] $end
$var wire 1 I RegWrite_i $end
$var wire 1 ' clk_i $end
$var wire 1 c Miss_stall_i $end
$var wire 32 ]" MemData_i [31:0] $end
$var reg 32 ^" ALUResult_o [31:0] $end
$var reg 32 _" MemData_o [31:0] $end
$var reg 1 e MemtoReg_o $end
$var reg 5 `" RDaddr_o [4:0] $end
$var reg 1 H RegWrite_o $end
$upscope $end
$scope module MUX_A $end
$var wire 32 a" data1_i [31:0] $end
$var wire 32 b" data2_i [31:0] $end
$var wire 1 c" select_i $end
$var wire 32 d" data_o [31:0] $end
$upscope $end
$scope module MUX_AA $end
$var wire 32 e" data1_i [31:0] $end
$var wire 32 f" data2_i [31:0] $end
$var wire 1 g" select_i $end
$var wire 32 h" data_o [31:0] $end
$upscope $end
$scope module MUX_ALUSrc $end
$var wire 32 i" data2_i [31:0] $end
$var wire 1 y select_i $end
$var wire 32 j" data_o [31:0] $end
$var wire 32 k" data1_i [31:0] $end
$upscope $end
$scope module MUX_B $end
$var wire 32 l" data1_i [31:0] $end
$var wire 32 m" data2_i [31:0] $end
$var wire 1 n" select_i $end
$var wire 32 o" data_o [31:0] $end
$upscope $end
$scope module MUX_BB $end
$var wire 32 p" data1_i [31:0] $end
$var wire 32 q" data2_i [31:0] $end
$var wire 1 r" select_i $end
$var wire 32 s" data_o [31:0] $end
$upscope $end
$scope module MUX_WB $end
$var wire 32 t" data1_i [31:0] $end
$var wire 32 u" data2_i [31:0] $end
$var wire 1 e select_i $end
$var wire 32 v" data_o [31:0] $end
$upscope $end
$scope module MUX_Zero $end
$var wire 32 w" data1_i [31:0] $end
$var wire 32 x" data2_i [31:0] $end
$var wire 1 3 select_i $end
$var wire 32 y" data_o [31:0] $end
$upscope $end
$scope module PC $end
$var wire 1 _ PCWrite_i $end
$var wire 1 ' clk_i $end
$var wire 32 z" pc_i [31:0] $end
$var wire 1 ( rst_i $end
$var wire 1 ) start_i $end
$var wire 1 c stall_i $end
$var reg 32 {" pc_o [31:0] $end
$upscope $end
$scope module Registers $end
$var wire 5 |" RDaddr_i [4:0] $end
$var wire 32 }" RDdata_i [31:0] $end
$var wire 5 ~" RS1addr_i [4:0] $end
$var wire 5 !# RS2addr_i [4:0] $end
$var wire 1 H RegWrite_i $end
$var wire 1 ' clk_i $end
$var wire 32 "# RS2data_o [31:0] $end
$var wire 32 ## RS1data_o [31:0] $end
$upscope $end
$scope module Sign_Extend $end
$var wire 32 $# data_i [31:0] $end
$var wire 32 %# data_o [31:0] $end
$var wire 32 &# data_9 [31:0] $end
$var wire 32 '# data_678 [31:0] $end
$var wire 32 (# data_10 [31:0] $end
$upscope $end
$scope module dcache $end
$var wire 1 )# cache_dirty $end
$var wire 1 *# cache_sram_enable $end
$var wire 4 +# cache_sram_index [3:0] $end
$var wire 1 ,# cache_sram_write $end
$var wire 1 ' clk_i $end
$var wire 1 n cpu_MemRead_i $end
$var wire 1 j cpu_MemWrite_i $end
$var wire 32 -# cpu_addr_i [31:0] $end
$var wire 32 .# cpu_data_i [31:0] $end
$var wire 32 /# cpu_data_o [31:0] $end
$var wire 1 0# cpu_req $end
$var wire 1 c cpu_stall_o $end
$var wire 256 1# mem_data_o [255:0] $end
$var wire 1 $ mem_enable_o $end
$var wire 1 # mem_write_o $end
$var wire 256 2# r_hit_data [255:0] $end
$var wire 1 ( rst_i $end
$var wire 1 3# write_hit $end
$var wire 1 4# sram_valid $end
$var wire 22 5# sram_tag [21:0] $end
$var wire 1 6# sram_dirty $end
$var wire 25 7# sram_cache_tag [24:0] $end
$var wire 256 8# sram_cache_data [255:0] $end
$var wire 256 9# mem_data_i [255:0] $end
$var wire 32 :# mem_addr_o [31:0] $end
$var wire 1 " mem_ack_i $end
$var wire 1 ;# hit $end
$var wire 23 <# cpu_tag [22:0] $end
$var wire 5 =# cpu_offset [4:0] $end
$var wire 4 ># cpu_index [3:0] $end
$var wire 25 ?# cache_sram_tag [24:0] $end
$var wire 256 @# cache_sram_data [255:0] $end
$var reg 1 A# cache_write $end
$var reg 32 B# cpu_data [31:0] $end
$var reg 1 C# mem_enable $end
$var reg 1 D# mem_write $end
$var reg 3 E# state [2:0] $end
$var reg 256 F# w_hit_data [255:0] $end
$var reg 1 G# write_back $end
$var integer 32 H# i [31:0] $end
$scope module dcache_sram $end
$var wire 4 I# addr_i [3:0] $end
$var wire 1 ' clk_i $end
$var wire 256 J# data_i [255:0] $end
$var wire 1 *# enable_i $end
$var wire 1 ;# hit_o $end
$var wire 1 ( rst_i $end
$var wire 25 K# tag_i [24:0] $end
$var wire 1 ,# write_i $end
$var wire 25 L# tag_o [24:0] $end
$var wire 256 M# data_o [255:0] $end
$var integer 32 N# i [31:0] $end
$var integer 32 O# j [31:0] $end
$upscope $end
$upscope $end
$upscope $end
$scope module Data_Memory $end
$var wire 1 " ack_o $end
$var wire 32 P# addr_i [31:0] $end
$var wire 1 ' clk_i $end
$var wire 256 Q# data_i [255:0] $end
$var wire 256 R# data_o [255:0] $end
$var wire 1 $ enable_i $end
$var wire 1 ( rst_i $end
$var wire 1 # write_i $end
$var wire 27 S# addr [26:0] $end
$var reg 4 T# count [3:0] $end
$var reg 256 U# data [255:0] $end
$var reg 2 V# state [1:0] $end
$upscope $end
$upscope $end
$enddefinitions $end
#0
$dumpvars
b0 V#
bx U#
b0 T#
bx S#
bx R#
bx Q#
bx00000 P#
b10 O#
b10000 N#
bx M#
bx L#
b10xxxxxxxxxxxxxxxxxxxxxxx K#
bx J#
bx I#
bx H#
0G#
bx F#
b0 E#
0D#
0C#
bx B#
0A#
bx @#
b10xxxxxxxxxxxxxxxxxxxxxxx ?#
bx >#
bx =#
bx <#
0;#
bx00000 :#
bx 9#
bx 8#
bx 7#
x6#
bx 5#
x4#
03#
bx 2#
bx 1#
x0#
bx /#
bx .#
bx -#
0,#
bx +#
x*#
0)#
bx (#
bx '#
bx &#
bx %#
bx $#
bx ##
bx "#
bx !#
bx ~"
bx }"
bx |"
b0 {"
b100 z"
b100 y"
bx x"
b100 w"
bx v"
bx u"
bx t"
bx s"
xr"
bx q"
bx p"
bx o"
xn"
bx m"
bx l"
bx k"
bx j"
bx i"
bx h"
xg"
bx f"
bx e"
bx d"
xc"
bx b"
bx a"
bx `"
bx _"
bx ^"
bx ]"
bx \"
bx ["
b0 Z"
bx Y"
bx X"
bx W"
bx V"
b0 U"
xT"
zS"
bx R"
bx Q"
bx P"
bx O"
bx N"
bx M"
bx L"
bx K"
bx J"
bx I"
bx H"
bx G"
bx F"
bx E"
bx D"
bx C"
bx B"
xA"
bx @"
bx ?"
bx >"
bx ="
bx <"
bx ;"
b0x :"
b0x 9"
x8"
x7"
x6"
x5"
bx 4"
bx 3"
bx 2"
bx 1"
bx 0"
bx /"
bx ."
bx -"
bx ,"
bx +"
bx *"
bx )"
bx ("
bx '"
bx &"
bx %"
bx $"
bx #"
bx ""
bx !"
bx ~
bx }
bx |
bx {
xz
xy
0x
xw
xv
bx u
bx t
bx s
bx r
bx q
0p
xo
xn
xm
0l
xk
xj
xi
0h
xg
xf
xe
xd
xc
xb
xa
bx `
x_
x^
bx ]
bx \
bx [
bx Z
bx Y
bx X
bx W
bx V
bx U
bx T
bx S
bx R
bx Q
bx P
bx O
bx N
bx M
bx L
0K
xJ
xI
xH
xG
bx F
bx0 E
bx D
xC
bx B
bx A
bx @
bx ?
bx00000 >
bx =
bx <
b100 ;
b0 :
bx 9
bx 8
b100 7
bx 6
bx 5
bx 4
03
bx 2
bx 1
bx 0
bx /
b0 .
bx -
bx ,
x+
bx *
0)
1(
0'
bx00000 &
bx %
0$
0#
0"
bx !
$end
#12
b0 r
b0 ]"
b0 /#
b0 B#
b0 F#
b0 }
b0 '"
b0 -"
b0 s
b0 $"
b0 j"
b0 S#
b0 5#
0r"
0n"
0g"
0c"
0z
0i
0d
0m
0G
b0 R
b0 %"
b0 h"
b0 M
b0 ."
b0 k"
b0 s"
06#
04#
b0 t
b0 ="
b0 u
b0 >"
0T"
1^
0w
b0 !"
b0 +"
b0 C"
b0 8
b0 x"
b0 E
b0 6
b0 d"
b0 e"
b0 5
b0 o"
b0 p"
b0 &
b0 >
b0 :#
b0 P#
b0 7#
b0 L#
b0 2#
b0 %
b0 <
b0 1#
b0 Q#
b0 8#
b0 M#
0c
05"
07"
b0 9"
b0 :"
b11 ""
b11 &"
b11 *"
0C
0a
1b
1v
b0 O
b0 I"
b0 "#
1A"
b0 T
b0 J"
b0 ##
b0 F
b0 H"
b0 %#
1_
b0 X
b0 b"
b0 m"
b0 }"
b0 Z
b0 4"
b0 |"
b0 W
b0 v"
b100000000 H#
b1000000000000000000000000 ?#
b1000000000000000000000000 K#
b0 <#
b0 +#
b0 I#
b0 >#
b0 =#
0*#
00#
08"
06"
b0 B
b0 G"
b0 ]
b0 D"
b0 Q
b0 @"
b0 F"
b0 !#
b0 V
b0 ?"
b0 E"
b0 ~"
b0 `
b0 ,"
b0 '#
b0 &#
b0 (#
b101 2
b11 1
b0 #"
b0 Y
b0 `"
b0 q
b0 _"
b0 u"
b0 {
b0 ^"
b0 t"
0e
0H
b0 [
b0 1"
b0 3"
b0 \"
b0 L
b0 2"
b0 .#
b0 |
b0 0"
b0 ["
b0 f"
b0 q"
b0 -#
0j
0n
0f
0I
b0 \
b0 /"
b0 B"
b0 L"
b0 P
b0 ;"
b0 O"
b0 U
b0 <"
b0 M"
b0 A
b0 ("
b0 R"
b0 D
b0 Q"
b0 i"
b0 N
b0 P"
b0 l"
b0 S
b0 N"
b0 a"
0y
b0 ~
b0 )"
b0 K"
0k
0o
0g
0J
b0 9
b0 X"
b0 4
b0 $#
b0 ?
b0 W"
b10 0
b10011110000011 @
b10011110000011 V"
b10011110000011 Y"
b1000000000 /
1)
0(
#25
1h
1p
1K
1z
1d
1m
1G
0b
b10 B
b10 G"
b1111 ]
b1111 D"
b11 `
b11 ,"
b1111 &#
b10000000111 (#
b10000000010011100000011 @
b10000000010011100000011 V"
b10000000010011100000011 Y"
b1000 ;
b1000 y"
b1000 z"
b10011110000011 4
b10011110000011 $#
b10011110000011 ?
b10011110000011 W"
b1 #"
b1000 7
b1000 w"
b100 :
b100 U"
b100 Z"
b100 {"
b1 .
0+
1'
#50
0'
#75
b1000 E
b100 F
b100 H"
b100 %#
0A"
b1110 ]
b1110 D"
b100 Q
b100 @"
b100 F"
b100 !#
b100 '#
b1110 &#
b111 (#
b100000000010011010000011 @
b100000000010011010000011 V"
b100000000010011010000011 Y"
b1100 ;
b1100 y"
b1100 z"
b10 #"
b1111 \
b1111 /"
b1111 B"
b1111 L"
b10 A
b10 ("
b10 R"
1y
1o
1g
1J
b1100 8
b1100 x"
b100 9
b100 X"
b10000000010011100000011 4
b10000000010011100000011 $#
b10000000010011100000011 ?
b10000000010011100000011 W"
b1100 7
b1100 w"
b1000 :
b1000 U"
b1000 Z"
b1000 {"
b10 .
1'
#100
0'
#125
b10000 E
1T"
b1000 F
b1000 H"
b1000 %#
b100 }
b100 '"
b100 -"
1c
b1101 ]
b1101 D"
b1000 Q
b1000 @"
b1000 F"
b1000 !#
b1000 '#
b1101 &#
b10000000110 (#
b100 s
b100 $"
b100 j"
1*#
10#
b110000000010011000000011 @
b110000000010011000000011 V"
b110000000010011000000011 Y"
b10000 ;
b10000 y"
b10000 z"
b11000 8
b11000 x"
b1000 9
b1000 X"
b100000000010011010000011 4
b100000000010011010000011 $#
b100000000010011010000011 ?
b100000000010011010000011 W"
b1110 \
b1110 /"
b1110 B"
b1110 L"
b100 P
b100 ;"
b100 O"
b100 D
b100 Q"
b100 i"
b1111 [
b1111 1"
b1111 3"
b1111 \"
1n
1f
1I
b11 #"
b10000 7
b10000 w"
b1100 :
b1100 U"
b1100 Z"
b1100 {"
b11 .
1'
#150
0'
#175
b100 #"
1$
1C#
b100 E#
b100 .
1+
1'
#200
0'
#225
b101 #"
b1 T#
b1 V#
b1 E#
b101 .
1'
#250
0'
#275
b110 #"
b10 T#
b110 .
1'
#300
0'
#325
b111 #"
b11 T#
b111 .
1'
#350
0'
#375
b1000 #"
b100 T#
b1000 .
1'
#400
0'
#425
b1001 #"
b101 T#
b1001 .
1'
#450
0'
#475
b1010 #"
b110 T#
b1010 .
1'
#500
0'
#525
b1011 #"
b111 T#
b1011 .
1'
#550
0'
#575
b1100 #"
b1000 T#
b1100 .
1'
#600
0'
#625
1"
b1101 #"
b1001 T#
b1101 .
1'
#650
0'
#675
1,#
0"
b1110 #"
1A#
0$
0C#
b10 E#
b0 T#
b0 V#
b100010001000100100010001000100011001100110011010001000100010001010101010101010110011001100110011101110111011110001000100010001001100110011001101010101010101010111011101110111100110011001100110111011101110111101110111011101111111111111111 @#
b100010001000100100010001000100011001100110011010001000100010001010101010101010110011001100110011101110111011110001000100010001001100110011001101010101010101010111011101110111100110011001100110111011101110111101110111011101111111111111111 J#
b1110 .
b100010001000100100010001000100011001100110011010001000100010001010101010101010110011001100110011101110111011110001000100010001001100110011001101010101010101010111011101110111100110011001100110111011101110111101110111011101111111111111111 !
b100010001000100100010001000100011001100110011010001000100010001010101010101010110011001100110011101110111011110001000100010001001100110011001101010101010101010111011101110111100110011001100110111011101110111101110111011101111111111111111 =
b100010001000100100010001000100011001100110011010001000100010001010101010101010110011001100110011101110111011110001000100010001001100110011001101010101010101010111011101110111100110011001100110111011101110111101110111011101111111111111111 9#
b100010001000100100010001000100011001100110011010001000100010001010101010101010110011001100110011101110111011110001000100010001001100110011001101010101010101010111011101110111100110011001100110111011101110111101110111011101111111111111111 R#
b100010001000100100010001000100011001100110011010001000100010001010101010101010110011001100110011101110111011110001000100010001001100110011001101010101010101010111011101110111100110011001100110111011101110111101110111011101111111111111111 U#
1'
#700
0'
#725
b100010001000100100010001000100011001100110011010001000100010001010101010101010110011001100110011101110111011110001000100010001001100110011001101010101010101010111011101110111100110011001100110111011101110100000000000000000000000000000000 F#
b11101110111011101111111111111111 r
b11101110111011101111111111111111 ]"
b11101110111011101111111111111111 /#
b11101110111011101111111111111111 B#
0T"
0c
b100010001000100100010001000100011001100110011010001000100010001010101010101010110011001100110011101110111011110001000100010001001100110011001101010101010101010111011101110111100110011001100110111011101110100000000000000000000000000000000 @#
b100010001000100100010001000100011001100110011010001000100010001010101010101010110011001100110011101110111011110001000100010001001100110011001101010101010101010111011101110111100110011001100110111011101110100000000000000000000000000000000 J#
1;#
14#
b100000000 H#
0,#
b1000000000000000000000000 7#
b1000000000000000000000000 L#
b100010001000100100010001000100011001100110011010001000100010001010101010101010110011001100110011101110111011110001000100010001001100110011001101010101010101010111011101110111100110011001100110111011101110111101110111011101111111111111111 2#
b100010001000100100010001000100011001100110011010001000100010001010101010101010110011001100110011101110111011110001000100010001001100110011001101010101010101010111011101110111100110011001100110111011101110111101110111011101111111111111111 %
b100010001000100100010001000100011001100110011010001000100010001010101010101010110011001100110011101110111011110001000100010001001100110011001101010101010101010111011101110111100110011001100110111011101110111101110111011101111111111111111 <
b100010001000100100010001000100011001100110011010001000100010001010101010101010110011001100110011101110111011110001000100010001001100110011001101010101010101010111011101110111100110011001100110111011101110111101110111011101111111111111111 1#
b100010001000100100010001000100011001100110011010001000100010001010101010101010110011001100110011101110111011110001000100010001001100110011001101010101010101010111011101110111100110011001100110111011101110111101110111011101111111111111111 Q#
b100010001000100100010001000100011001100110011010001000100010001010101010101010110011001100110011101110111011110001000100010001001100110011001101010101010101010111011101110111100110011001100110111011101110111101110111011101111111111111111 8#
b100010001000100100010001000100011001100110011010001000100010001010101010101010110011001100110011101110111011110001000100010001001100110011001101010101010101010111011101110111100110011001100110111011101110111101110111011101111111111111111 M#
b1111 #"
0A#
b0 E#
b1111 .
1'
#750
0'
#775
b100010001000100100010001000100011001100110011010001000100010001010101010101010110011001100110011101110111011110001000100010001001100110011001101010101010101010111011101110110000000000000000000000000000000011101110111011101111111111111111 @#
b100010001000100100010001000100011001100110011010001000100010001010101010101010110011001100110011101110111011110001000100010001001100110011001101010101010101010111011101110110000000000000000000000000000000011101110111011101111111111111111 J#
b100010001000100100010001000100011001100110011010001000100010001010101010101010110011001100110011101110111011110001000100010001001100110011001101010101010101010111011101110110000000000000000000000000000000011101110111011101111111111111111 F#
b11001100110011001101110111011101 r
b11001100110011001101110111011101 ]"
b11001100110011001101110111011101 /#
b11001100110011001101110111011101 B#
b11000 E
b11101110111011101111111111111111 X
b11101110111011101111111111111111 b"
b11101110111011101111111111111111 m"
b11101110111011101111111111111111 }"
b100000000 H#
b1000 }
b1000 '"
b1000 -"
b1100 F
b1100 H"
b1100 %#
b1111 Z
b1111 4"
b1111 |"
b11101110111011101111111111111111 W
b11101110111011101111111111111111 v"
b100 =#
b1000 s
b1000 $"
b1000 j"
b1100 ]
b1100 D"
b1100 Q
b1100 @"
b1100 F"
b1100 !#
b1100 '#
b1100 &#
b110 (#
b1000000000010010110000011 @
b1000000000010010110000011 V"
b1000000000010010110000011 Y"
b10100 ;
b10100 y"
b10100 z"
b10000 #"
b1111 Y
b1111 `"
b11101110111011101111111111111111 q
b11101110111011101111111111111111 _"
b11101110111011101111111111111111 u"
1e
1H
b1110 [
b1110 1"
b1110 3"
b1110 \"
b100 |
b100 0"
b100 ["
b100 f"
b100 q"
b100 -#
b1101 \
b1101 /"
b1101 B"
b1101 L"
b1000 P
b1000 ;"
b1000 O"
b1000 D
b1000 Q"
b1000 i"
b100100 8
b100100 x"
b1100 9
b1100 X"
b110000000010011000000011 4
b110000000010011000000011 $#
b110000000010011000000011 ?
b110000000010011000000011 W"
b10100 7
b10100 w"
b10000 :
b10000 U"
b10000 Z"
b10000 {"
b10000 .
0+
1'
#800
0'
#825
b100010001000100100010001000100011001100110011010001000100010001010101010101010110011001100110011101110111011110001000100010001001100110011001000000000000000000000000000000001100110011001100110111011101110111101110111011101111111111111111 @#
b100010001000100100010001000100011001100110011010001000100010001010101010101010110011001100110011101110111011110001000100010001001100110011001000000000000000000000000000000001100110011001100110111011101110111101110111011101111111111111111 J#
b100010001000100100010001000100011001100110011010001000100010001010101010101010110011001100110011101110111011110001000100010001001100110011001000000000000000000000000000000001100110011001100110111011101110111101110111011101111111111111111 F#
b10101010101010101011101110111011 r
b10101010101010101011101110111011 ]"
b10101010101010101011101110111011 /#
b10101010101010101011101110111011 B#
1h
1p
1K
1z
1d
1m
1G
1_
0b
b100000 E
0T"
1^
b10000 F
b10000 H"
b10000 %#
0C
0a
b1100 }
b1100 '"
b1100 -"
b100000000 H#
b11001100110011001101110111011101 X
b11001100110011001101110111011101 b"
b11001100110011001101110111011101 m"
b11001100110011001101110111011101 }"
b1011 ]
b1011 D"
b10000 Q
b10000 @"
b10000 F"
b10000 !#
b10000 '#
b1011 &#
b10000000101 (#
0A"
b1100 s
b1100 $"
b1100 j"
b1000 =#
b1110 Z
b1110 4"
b1110 |"
b11001100110011001101110111011101 W
b11001100110011001101110111011101 v"
b1010000000010010100000011 @
b1010000000010010100000011 V"
b1010000000010010100000011 Y"
b11000 ;
b11000 y"
b11000 z"
b110000 8
b110000 x"
b10000 9
b10000 X"
b1000000000010010110000011 4
b1000000000010010110000011 $#
b1000000000010010110000011 ?
b1000000000010010110000011 W"
b1100 \
b1100 /"
b1100 B"
b1100 L"
b1100 P
b1100 ;"
b1100 O"
b1100 D
b1100 Q"
b1100 i"
b1101 [
b1101 1"
b1101 3"
b1101 \"
b1000 |
b1000 0"
b1000 ["
b1000 f"
b1000 q"
b1000 -#
b1110 Y
b1110 `"
b11001100110011001101110111011101 q
b11001100110011001101110111011101 _"
b11001100110011001101110111011101 u"
b100 {
b100 ^"
b100 t"
b10001 #"
b11000 7
b11000 w"
b10100 :
b10100 U"
b10100 Z"
b10100 {"
b10001 .
1'
#850
0'
